Inf,0.413229186023155,0.418771039076605,0.232548137741421,0.413778331865737,0.500910146865159,0.593593258266856,-0.0206873880594818,0.436261880110096
0.413229186023155,Inf,0.73173166648803,0.29325828872215,0.631849330783722,0.613783072281905,0.556882860446481,0.092119724806817,1.02321552037893
0.418771039076605,0.73173166648803,Inf,0.193904943023652,1.15493137362524,0.708935091073046,0.612265340908449,0.0202645948748523,1.01705350815756
0.232548137741421,0.29325828872215,0.193904943023652,Inf,0.0551928067171565,-0.0143313515878132,0.0366069315344619,0.239462069382502,0.161086737622696
0.413778331865737,0.631849330783722,1.15493137362524,0.0551928067171565,Inf,0.887109257967019,0.651490658760183,0.0707499655598134,1.035971141394
0.500910146865159,0.613783072281905,0.708935091073046,-0.0143313515878132,0.887109257967019,Inf,1.03068860691682,0.148267672758449,1.01037893911917
0.593593258266856,0.556882860446481,0.612265340908449,0.0366069315344619,0.651490658760183,1.03068860691682,Inf,-0.0180773250791151,0.618419210873012
-0.0206873880594818,0.092119724806817,0.0202645948748523,0.239462069382502,0.0707499655598134,0.148267672758449,-0.0180773250791151,Inf,0.108275352271391
0.436261880110096,1.02321552037893,1.01705350815756,0.161086737622696,1.035971141394,1.01037893911917,0.618419210873012,0.108275352271391,Inf
