MDN_APH

Participant:	16
Date: 06/25/2021 19:07:01
Session: 3
Run: 1
Buttons: 2/1

block_number	stimulus_audio	time_audio	length_audio	stimulus_picture	time_picture	response_time	relative_response_time	button_response	accuracy	condition	correctness	category	ISI	time_ISI
1	paprika_word	18300	1330	paprika	19648	938	20587	1	correct	WPM	correct	gemuese	2500	21815
1	sichel_word	24381	1210	walze	25598	661	26260	2	correct	WPM	incorrect	werkzeug	7000	27898
1	eichhoernchen_correct	34964	990	eichhoernchen	35964	511	36475	1	correct	FPM	correct	saeugetier	4750	38481
1	sessel_word	43297	1130	schrank	44430	638	45069	2	correct	WPM	incorrect	moebelstueck	16250	63096
2	eule_incorrect	64662	1370	eule	66046	842	66888	2	correct	FPM	incorrect	vogel	7000	68179
2	bueffel_incorrect	75262	1220	bueffel	76495	839	77334	2	correct	FPM	incorrect	saeugetier	4750	78778
2	kirsche_correct	83595	1250	kirsche	84861	1083	85944	1	correct	FPM	correct	frucht	2500	87111
2	biber_word	89678	1130	kamel	90811	628	91439	2	correct	WPM	incorrect	saeugetier	3750	96977
3	schlafanzug_incorrect	98544	1320	schlafanzug	99877	717	100595	2	correct	FPM	incorrect	kleidungsstueck	7000	102060
3	tisch_correct	109126	1220	tisch	110360	533	110893	1	correct	FPM	correct	moebelstueck	4750	112643
3	flugzeug_word	117459	1410	flugzeug	118876	567	119443	1	correct	WPM	correct	fortbewegungsmittel	2500	120976
3	hemd_word	123542	1110	hemd	124659	586	125245	1	correct	WPM	correct	kleidungsstueck	3750	130842
4	450_700	132392	1200	pfeil_hoch	133608	909	134517	1	correct	tone	correct	tone	7000	135908
4	500_750	142958	1200	pfeil_runter	144174	816	144991	2	correct	tone	incorrect	tone	2500	146474
4	325_575	149024	1200	pfeil_runter	150240	1106	151347	2	correct	tone	incorrect	tone	4750	152540
4	700_450	157323	1200	pfeil_hoch	158540	945	159486	2	correct	tone	incorrect	tone	3750	164623
5	lama_incorrect	166190	940	lama	167139	940	168080	2	correct	FPM	incorrect	saeugetier	7000	169706
5	birne_incorrect	176789	1510	birne	178305	586	179277	2	correct	FPM	incorrect	frucht	4750	180305
5	meissel_incorrect	185105	1150	meissel	186272	1016	187288	2	correct	FPM	incorrect	werkzeug	2500	188622
5	schlitten_incorrect	191171	1330	schlitten	192505	666	193171	2	correct	FPM	incorrect	fortbewegungsmittel	16250	210970
6	mantel_word	212537	1020	handschuh	213570	668	214238	2	correct	WPM	incorrect	kleidungsstueck	4750	216053
6	kokosnuss_word	220870	1510	weintraube	222386	686	223073	2	correct	WPM	incorrect	frucht	2500	224386
6	fahrrad_correct	226953	1070	fahrrad	228036	605	228641	1	correct	FPM	correct	fortbewegungsmittel	7000	230469
6	walze_word	237535	1300	sichel	238852	700	239553	2	correct	WPM	incorrect	werkzeug	3750	244835
7	kiwi_word	246401	1190	kiwi	247601	632	248234	1	correct	WPM	correct	frucht	4750	249918
7	faehre_word	254734	1240	kutsche	255984	492	256476	2	correct	WPM	incorrect	fortbewegungsmittel	2500	258251
7	schleifpapier_incorrect	260817	1130	schleifpapier	261950	705	262656	2	correct	FPM	incorrect	werkzeug	7000	264334
7	radieschen_incorrect	271400	1350	radieschen	272766	720	273487	2	correct	FPM	incorrect	gemuese	16250	291199
8	kleid_word	292749	1210	kleid	293965	511	294477	1	correct	WPM	correct	kleidungsstueck	7000	296265
8	kamel_word	303331	1190	biber	304531	658	305190	2	correct	WPM	incorrect	saeugetier	4750	306848
8	hut_correct	311664	1290	hut	312964	522	313487	1	correct	FPM	correct	kleidungsstueck	2500	315181
8	wal_correct	317764	1360	wal	319130	554	319685	2	incorrect	FPM	correct	saeugetier	3750	325063
9	aprikose_correct	326630	1670	aprikose	328313	1617	329930	1	correct	FPM	correct	frucht	7000	330146
9	meise_word	337213	1210	moewe	338429	661	339091	2	correct	WPM	incorrect	vogel	2500	340729
9	orange_word	343279	1230	orange	344512	669	345181	1	correct	WPM	correct	frucht	4750	346795
9	moewe_word	351612	1240	meise	352862	625	353487	2	correct	WPM	incorrect	vogel	3750	358911
10	475_725	360461	1200	pfeil_hoch	361678	851	362529	1	correct	tone	correct	tone	4750	363978
10	775_525	368761	1200	pfeil_runter	369977	966	370944	1	correct	tone	correct	tone	7000	372277
10	300_550	379327	1200	pfeil_runter	380543	1141	381685	2	correct	tone	incorrect	tone	2500	382843
10	750_500	385393	1200	pfeil_runter	386610	744	387354	1	correct	tone	correct	tone	3750	392692
11	kutsche_word	394259	1210	faehre	395476	704	396180	2	correct	WPM	incorrect	fortbewegungsmittel	7000	397776
11	bohrmaschine_correct	404825	1180	bohrmaschine	406008	650	406659	1	correct	FPM	correct	werkzeug	2500	408342
11	hose_incorrect	410908	1020	hose	411941	655	412596	2	correct	FPM	incorrect	kleidungsstueck	4750	414425
11	reiher_word	419241	1180	reiher	420424	846	421271	1	correct	WPM	correct	vogel	16250	439040
12	550_800	440590	1200	pfeil_hoch	441806	748	442555	1	correct	tone	correct	tone	2500	444106
12	800_550	446639	1200	pfeil_hoch	447856	603	448459	1	incorrect	tone	incorrect	tone	4750	450156
12	625_375	454939	1200	pfeil_hoch	456155	837	456993	2	correct	tone	incorrect	tone	7000	458455
12	575_825	465488	1200	pfeil_hoch	466705	558	467263	1	correct	tone	correct	tone	16250	485287
13	sofa_word	486870	1200	sofa	488087	1005	489092	1	correct	WPM	correct	moebelstueck	2500	490387
13	fuchs_word	492953	1100	fuchs	494070	888	494958	1	correct	WPM	correct	saeugetier	4750	496470
13	axt_word	501286	1140	axt	502436	713	503149	1	correct	WPM	correct	werkzeug	7000	504802
13	avocado_word	511869	1440	avocado	513319	565	513884	1	correct	WPM	correct	gemuese	3750	519168
14	375_625	520718	1200	pfeil_hoch	521935	719	522654	1	correct	tone	correct	tone	4750	524235
14	550_300	529018	1200	pfeil_runter	530234	1201	531436	1	correct	tone	correct	tone	7000	532534
14	425_675	539567	1200	pfeil_runter	540784	902	541686	2	correct	tone	incorrect	tone	2500	543083
14	650_400	545617	1200	pfeil_runter	546833	951	547785	1	correct	tone	correct	tone	3750	552916
15	dattel_incorrect	554466	1310	dattel	555783	994	556777	2	correct	FPM	incorrect	frucht	4750	557983
15	pinguin_correct	562782	1210	pinguin	563999	796	564795	1	correct	FPM	correct	vogel	2500	566299
15	schrank_word	568849	1150	sessel	570015	681	570696	2	correct	WPM	incorrect	moebelstueck	7000	572365
15	zug_correct	579431	870	zug	580314	1427	581742	1	correct	FPM	correct	fortbewegungsmittel	16250	599230
16	weisskohl_word	600797	1160	sellerie	601963	733	602696	2	correct	WPM	incorrect	gemuese	2500	604313
16	schal_correct	606880	1080	schal	607963	929	608893	1	correct	FPM	correct	kleidungsstueck	7000	610396
16	sellerie_word	617462	1110	weisskohl	618579	909	619488	2	correct	WPM	incorrect	gemuese	4750	620979
16	saege_word	625795	1220	saege	627028	557	627586	1	correct	WPM	correct	werkzeug	3750	633095
17	wellensittich_correct	634645	1110	wellensittich	635761	618	636379	1	correct	FPM	correct	vogel	7000	638161
17	regal_incorrect	645227	1220	regal	646460	1012	647473	2	correct	FPM	incorrect	moebelstueck	2500	648744
17	kohlrabi_incorrect	651310	1110	kohlrabi	652427	764	653192	2	correct	FPM	incorrect	gemuese	4750	654827
17	harke_correct	659643	1170	harke	660826	655	661482	1	correct	FPM	correct	werkzeug	16250	679442
18	825_575	680992	1200	pfeil_hoch	682208	1082	683291	2	correct	tone	incorrect	tone	2500	684508
18	725_475	687058	1200	pfeil_hoch	688275	1095	689370	2	correct	tone	incorrect	tone	7000	690574
18	675_425	697607	1200	pfeil_runter	698824	763	699588	1	correct	tone	correct	tone	4750	701124
18	525_775	705924	1200	pfeil_runter	707140	942	708083	2	correct	tone	incorrect	tone	3750	713223
19	kommode_incorrect	714790	1240	kommode	716040	657	716697	2	correct	FPM	incorrect	moebelstueck	4750	718306
19	adler_word	723106	1210	adler	724322	638	724961	1	correct	WPM	correct	vogel	7000	726622
19	zwiebel_correct	733689	940	zwiebel	734638	1337	735976	2	incorrect	FPM	correct	gemuese	2500	737205
19	geier_incorrect	739755	1460	geier	741221	861	742083	2	correct	FPM	incorrect	vogel	16250	759554
20	truhe_word	761120	1190	truhe	762320	618	762938	1	correct	WPM	correct	moebelstueck	2500	764637
20	rollschuh_word	767220	1150	rollschuh	768386	557	768944	1	correct	WPM	correct	fortbewegungsmittel	4750	770736
20	moehre_correct	775553	1130	moehre	776686	773	777459	1	correct	FPM	correct	gemuese	7000	779069
20	schiff_incorrect	786135	1050	schiff	787202	646	787848	2	correct	FPM	incorrect	fortbewegungsmittel	3750	793435
21	400_650	794985	1200	pfeil_runter	796201	891	797093	2	correct	tone	incorrect	tone	2500	798501
21	350_600	801051	1200	pfeil_hoch	802268	590	802858	1	correct	tone	correct	tone	7000	804568
21	600_350	811601	1200	pfeil_hoch	812817	912	813730	2	correct	tone	incorrect	tone	4750	815117
21	575_325	819900	1200	pfeil_runter	821117	1164	822281	2	incorrect	tone	correct	tone	3750	827200
22	wiege_correct	828750	1210	wiege	829966	1224	831191	2	incorrect	FPM	correct	moebelstueck	4750	832266
22	handschuh_word	837082	1180	mantel	838266	712	838978	2	correct	WPM	incorrect	kleidungsstueck	2500	840599
22	weintraube_word	843182	1460	kokosnuss	844648	641	845290	2	correct	WPM	incorrect	frucht	7000	846698
22	seehund_word	853765	1380	seehund	855148	527	855676	1	correct	WPM	correct	saeugetier	0	855148
