MDN_APH

Participant:	25
Date: 09/15/2021 10:38:22
Session: 3
Run: 1
Buttons: 1/2

block_number	stimulus_audio	time_audio	length_audio	stimulus_picture	time_picture	response_time	relative_response_time	button_response	accuracy	condition	correctness	category	ISI	time_ISI
1	schrank_word	22752	1150	schrank	23915	1096	25011	2	correct	WPM	correct	moebelstueck	2500	26265
1	aprikose_correct	28831	1670	aprikose	30514	989	31504	2	correct	FPM	correct	frucht	4750	32348
1	harke_word	37147	1240	axt	38397	899	39297	1	correct	WPM	incorrect	werkzeug	7000	40664
1	mantel_incorrect	47747	920	mantel	48680	925	49605	1	correct	FPM	incorrect	kleidungsstueck	3750	55046
2	brokkoli_word	56613	1100	kohlrabi	57729	863	58593	1	correct	WPM	incorrect	gemuese	7000	60129
2	zwiebel_word	67196	1250	avocado	68462	1030	69493	1	correct	WPM	incorrect	gemuese	4750	70712
2	kokosnuss_incorrect	75512	1000	kokosnuss	76528	1445	77974	1	correct	FPM	incorrect	frucht	2500	79028
2	traktor_correct	81611	1050	traktor	82678	801	83479	2	correct	FPM	correct	fortbewegungsmittel	3750	88911
3	kutsche_word	90461	1210	kutsche	91677	967	92645	2	correct	WPM	correct	fortbewegungsmittel	7000	93977
3	hobel_correct	101044	1150	hobel	102210	1089	103299	2	correct	FPM	correct	werkzeug	4750	104560
3	faehre_incorrect	109393	940	faehre	110343	915	111259	1	correct	FPM	incorrect	fortbewegungsmittel	2500	112909
3	weisskohl_word	115476	1160	weisskohl	116642	1062	117705	2	correct	WPM	correct	gemuese	3750	122775
4	625_375	124325	1200	pfeil_hoch	125542	1218	126760	1	correct	tone	incorrect	tone	2500	127842
4	675_425	130392	1200	pfeil_runter	131608	1391	133000	2	correct	tone	correct	tone	7000	133908
4	375_625	140958	1200	pfeil_hoch	142174	936	143111	2	correct	tone	correct	tone	4750	144474
4	525_775	149274	1200	pfeil_runter	150490	917	151408	1	correct	tone	incorrect	tone	16250	169073
5	socke_incorrect	170639	1590	socke	172239	1336	173576	1	correct	FPM	incorrect	kleidungsstueck	2500	174156
5	faehre_correct	176706	1320	faehre	178039	1127	179166	2	correct	FPM	correct	fortbewegungsmittel	4750	180222
5	biber_word	185038	1130	biber	186172	906	187078	2	correct	WPM	correct	saeugetier	7000	188555
5	schaukelstuhl_word	195638	1430	schaukelstuhl	197071	798	197869	2	correct	WPM	correct	moebelstueck	16250	215436
6	700_450	216986	1200	pfeil_hoch	218203	690	218893	2	incorrect	tone	incorrect	tone	4750	220503
6	750_500	225303	1200	pfeil_runter	226519	1384	227903	2	correct	tone	correct	tone	2500	228819
6	325_575	231369	1200	pfeil_runter	232585	862	233448	1	correct	tone	incorrect	tone	7000	234885
6	300_550	241918	1200	pfeil_runter	243135	913	244048	1	correct	tone	incorrect	tone	16250	261717
7	tiger_correct	263284	1220	tiger	264517	1564	266081	2	correct	FPM	correct	saeugetier	2500	266800
7	wiege_word	269367	1190	truhe	270566	1015	271582	1	correct	WPM	incorrect	moebelstueck	7000	272883
7	maurerkelle_incorrect	279949	820	maurerkelle	280783	915	281698	1	correct	FPM	incorrect	werkzeug	4750	283466
7	wellensittich_correct	288282	1110	wellensittich	289399	801	290200	2	correct	FPM	correct	vogel	3750	295582
8	350_600	297132	1200	pfeil_hoch	298348	656	299004	2	correct	tone	correct	tone	4750	300648
8	425_675	305431	1200	pfeil_runter	306648	760	307409	1	correct	tone	incorrect	tone	7000	308947
8	550_800	315997	1200	pfeil_hoch	317214	664	317878	2	correct	tone	correct	tone	2500	319513
8	825_575	322047	1200	pfeil_hoch	323263	932	324196	1	correct	tone	incorrect	tone	3750	329346
9	moewe_incorrect	330896	1190	moewe	332096	1164	333261	1	correct	FPM	incorrect	vogel	4750	334413
9	ente_word	339229	1220	eule	340462	847	341310	1	correct	WPM	incorrect	vogel	7000	342745
9	walze_word	349812	1300	walze	351128	1072	352201	2	correct	WPM	correct	werkzeug	2500	353328
9	jeans_word	355895	1280	jeans	357178	824	358003	2	correct	WPM	correct	kleidungsstueck	16250	375693
10	weintraube_word	377260	1460	weintraube	378727	979	379706	2	correct	WPM	correct	frucht	7000	380776
10	elster_incorrect	387843	1220	elster	389076	799	389875	1	correct	FPM	incorrect	vogel	2500	391359
10	blaubeere_correct	393909	1510	blaubeere	395426	1587	397013	2	correct	FPM	correct	frucht	4750	397425
10	sessel_incorrect	402275	1040	sessel	403325	853	404178	1	correct	FPM	incorrect	moebelstueck	3750	409575
11	ziege_word	411141	1310	ziege	412458	828	413286	2	correct	WPM	correct	saeugetier	7000	414658
11	pullover_correct	421724	1320	pullover	423057	845	423903	2	correct	FPM	correct	kleidungsstueck	4750	425240
11	pullover_word	430057	1290	schlafanzug	431357	809	432166	1	correct	WPM	incorrect	kleidungsstueck	2500	433573
11	mais_word	436140	860	mais	437006	798	437805	2	correct	WPM	correct	gemuese	16250	455939
12	hocker_word	457505	1110	regal	458622	787	459409	1	correct	WPM	incorrect	moebelstueck	7000	461022
12	sellerie_incorrect	468088	1080	sellerie	469171	1195	470367	1	correct	FPM	incorrect	gemuese	2500	471604
12	gans_word	474171	1110	gans	475287	616	475904	2	correct	WPM	correct	vogel	4750	477687
12	wellensittich_word	482504	1510	reiher	484020	993	485013	1	correct	WPM	incorrect	vogel	3750	489803
13	wal_word	491370	1100	fuchs	492486	1088	493575	1	correct	WPM	incorrect	saeugetier	4750	494886
13	ente_correct	499703	1370	ente	501086	883	501970	2	correct	FPM	correct	vogel	2500	503219
13	fahrrad_word	505769	1350	rollschuh	507135	827	507963	1	correct	WPM	incorrect	fortbewegungsmittel	7000	509285
13	zitrone_incorrect	516352	970	zitrone	517335	859	518195	1	correct	FPM	incorrect	frucht	16250	536150
14	725_475	537700	1200	pfeil_hoch	538917	888	539806	2	incorrect	tone	incorrect	tone	4750	541217
14	800_550	546016	1200	pfeil_hoch	547233	860	548093	1	correct	tone	incorrect	tone	2500	549533
14	400_650	552083	1200	pfeil_runter	553299	747	554047	1	correct	tone	incorrect	tone	7000	555599
14	550_300	562649	1200	pfeil_runter	563865	1010	564876	2	correct	tone	correct	tone	3750	569948
15	650_400	571498	1200	pfeil_runter	572715	836	573552	2	correct	tone	correct	tone	2500	575015
15	600_350	577565	1200	pfeil_hoch	578781	799	579581	1	correct	tone	incorrect	tone	7000	581081
15	475_725	588114	1200	pfeil_hoch	589330	673	590004	2	correct	tone	correct	tone	4750	591630
15	500_750	596430	1200	pfeil_runter	597647	730	598378	1	correct	tone	incorrect	tone	16250	616229
16	hubschrauber_word	617795	1300	hubschrauber	619112	1050	620163	2	correct	WPM	correct	fortbewegungsmittel	7000	621312
16	zwiebel_correct	628395	940	zwiebel	629345	1340	630685	2	correct	FPM	correct	gemuese	2500	631911
16	wiege_correct	634478	1210	wiege	635694	1518	637212	2	correct	FPM	correct	moebelstueck	4750	637994
16	spargel_incorrect	642794	930	spargel	643727	969	644697	1	correct	FPM	incorrect	gemuese	3750	650093
17	brokkoli_correct	651643	1110	brokkoli	652760	1145	653905	2	correct	FPM	correct	gemuese	2500	655160
17	hobel_word	657710	1190	meissel	658910	792	659702	1	correct	WPM	incorrect	werkzeug	7000	661226
17	aprikose_word	668276	1440	orange	669726	1351	671077	1	correct	WPM	incorrect	frucht	4750	671792
17	feile_word	676609	1220	feile	677842	1172	679014	2	correct	WPM	correct	werkzeug	3750	683908
18	775_525	685441	1200	pfeil_runter	686658	1643	688301	2	correct	tone	correct	tone	4750	688958
18	575_825	693757	1200	pfeil_hoch	694974	733	695707	2	correct	tone	correct	tone	7000	697274
18	450_700	704323	1200	pfeil_hoch	705540	860	706400	2	correct	tone	correct	tone	2500	707840
18	575_325	710373	1200	pfeil_runter	711590	1206	712796	2	correct	tone	correct	tone	16250	730172
19	kamel_incorrect	731722	1240	kamel	732972	1329	734301	1	correct	FPM	incorrect	saeugetier	7000	735238
19	tiger_word	742305	1210	bueffel	743521	973	744494	1	correct	WPM	incorrect	saeugetier	2500	745821
19	traktor_word	748371	1320	schiff	749704	1191	750895	1	correct	WPM	incorrect	fortbewegungsmittel	4750	751887
19	meise_word	756704	1210	meise	757920	957	758878	2	correct	WPM	correct	vogel	3750	764003
20	handschuh_word	765553	1180	handschuh	766736	836	767573	2	correct	WPM	correct	kleidungsstueck	7000	769069
20	hut_correct	776119	1290	hut	777419	875	778294	2	correct	FPM	correct	kleidungsstueck	4750	779636
20	hocker_correct	784435	1220	hocker	785668	915	786584	2	correct	FPM	correct	moebelstueck	2500	787952
20	banane_word	790518	1320	banane	791851	716	792568	2	correct	WPM	correct	frucht	3750	797818
21	sichel_incorrect	799368	1170	sichel	800551	859	801411	1	correct	FPM	incorrect	werkzeug	4750	802884
21	fledermaus_incorrect	807684	1230	fledermaus	808917	988	809906	1	correct	FPM	incorrect	saeugetier	2500	811200
21	hut_word	813783	1120	kleid	814917	791	815708	1	correct	WPM	incorrect	kleidungsstueck	7000	817300
21	kanu_incorrect	824350	1270	kanu	825633	820	826453	1	correct	FPM	incorrect	fortbewegungsmittel	3750	831649
22	wal_correct	833199	1360	wal	834565	845	835411	1	incorrect	FPM	correct	saeugetier	2500	836715
22	harke_correct	839282	1170	harke	840465	747	841213	2	correct	FPM	correct	werkzeug	4750	842798
22	drehstuhl_incorrect	847615	1030	drehstuhl	848648	1602	850250	1	correct	FPM	incorrect	moebelstueck	7000	851131
22	blaubeere_word	858197	1450	birne	859664	830	860495	1	correct	WPM	incorrect	frucht	0	859664
