MDN_APH

Participant:	14
Date: 07/01/2021 15:07:49
Session: 3
Run: 2
Buttons: 2/1

block_number	stimulus_audio	time_audio	length_audio	stimulus_picture	time_picture	response_time	relative_response_time	button_response	accuracy	condition	correctness	category	ISI	time_ISI
1	schraubenzieher_word	22352	1420	schleifpapier	23798	2067	25853	2	correct	WPM	incorrect	werkzeug	4750	25865
1	fahrrad_correct	30681	1070	fahrrad	31764	1890	33655	1	correct	FPM	correct	fortbewegungsmittel	2500	34197
1	ananas_word	36731	1320	dattel	38064	996	39061	2	correct	WPM	incorrect	frucht	7000	40247
1	flugzeug_correct	47280	930	flugzeug	48213	1342	49556	1	correct	FPM	correct	fortbewegungsmittel	16250	67079
2	moewe_incorrect	68645	1190	moewe	69845	1611	71457	2	correct	FPM	incorrect	vogel	7000	72162
2	bank_word	79195	1160	kommode	80361	996	81358	2	correct	WPM	incorrect	moebelstueck	2500	82711
2	sellerie_word	85244	1110	weisskohl	86361	1095	87457	2	correct	WPM	incorrect	gemuese	4750	88761
2	moewe_word	93544	1240	meise	94794	762	95556	2	correct	WPM	incorrect	vogel	3750	100843
3	aprikose_correct	102393	1670	aprikose	104077	1972	106050	1	correct	FPM	correct	frucht	7000	105910
3	zug_word	112976	960	zug	113943	820	114763	1	correct	WPM	correct	fortbewegungsmittel	2500	116492
3	baer_word	119026	1130	lama	120159	986	121145	2	correct	WPM	incorrect	saeugetier	4750	122542
3	sofa_correct	127325	1110	sofa	128442	1015	129457	1	correct	FPM	correct	moebelstueck	3750	134625
4	375_625	136158	1200	pfeil_runter	137375	1228	138603	2	correct	tone	incorrect	tone	2500	139674
4	825_575	142208	1200	pfeil_runter	143424	923	144348	1	correct	tone	correct	tone	7000	145724
4	650_400	152757	1200	pfeil_hoch	153974	1473	155447	2	correct	tone	incorrect	tone	4750	156273
4	450_700	161057	1200	pfeil_runter	162273	1277	163550	2	correct	tone	incorrect	tone	3750	168356
5	ananas_incorrect	169889	1280	ananas	171172	1690	172863	2	correct	FPM	incorrect	frucht	7000	173406
5	kanu_word	180439	1260	kanu	181705	1143	182849	1	correct	WPM	correct	fortbewegungsmittel	4750	183955
5	kuerbis_incorrect	188738	1440	kuerbis	190188	1764	191952	2	correct	FPM	incorrect	gemuese	2500	192255
5	eichhoernchen_word	194821	1430	eichhoernchen	196254	1302	197556	1	correct	WPM	correct	saeugetier	3750	202121
6	zwiebel_correct	203671	940	zwiebel	204620	1669	206290	1	correct	FPM	correct	gemuese	2500	207187
6	wal_correct	209737	1360	wal	211103	1238	212342	2	incorrect	FPM	correct	saeugetier	4750	213253
6	bank_incorrect	218036	1210	bank	219253	1067	220320	2	correct	FPM	incorrect	moebelstueck	7000	221553
6	spatz_incorrect	228586	1380	spatz	229969	1390	231359	2	correct	FPM	incorrect	vogel	3750	235885
7	575_325	237419	1200	pfeil_hoch	238635	1405	240041	2	correct	tone	incorrect	tone	4750	240935
7	525_775	245718	1200	pfeil_hoch	246935	919	247854	1	correct	tone	correct	tone	2500	249234
7	500_750	251768	1200	pfeil_hoch	252984	932	253917	1	correct	tone	correct	tone	7000	255284
7	800_550	262317	1200	pfeil_runter	263534	1013	264547	1	correct	tone	correct	tone	16250	282116
8	kiwi_correct	283649	900	kiwi	284566	2199	286765	2	incorrect	FPM	correct	frucht	4750	287165
8	sessel_word	291949	1130	schrank	293082	1039	294122	2	correct	WPM	incorrect	moebelstueck	7000	295465
8	taxi_incorrect	302498	1170	taxi	303681	1228	304910	2	correct	FPM	incorrect	fortbewegungsmittel	2500	306014
8	hut_correct	308581	1290	hut	309881	884	310765	1	correct	FPM	correct	kleidungsstueck	3750	315880
9	550_800	317414	1200	pfeil_runter	318630	1421	320052	2	correct	tone	incorrect	tone	4750	320930
9	600_350	325713	1200	pfeil_runter	326930	821	327751	1	correct	tone	correct	tone	7000	329230
9	750_500	336263	1200	pfeil_hoch	337479	1286	338765	2	correct	tone	incorrect	tone	2500	339779
9	400_650	342312	1200	pfeil_hoch	343529	622	344151	1	correct	tone	correct	tone	3750	349612
10	kirsche_word	351162	1190	kirsche	352361	1281	353643	1	correct	WPM	correct	frucht	7000	354678
10	faehre_incorrect	361744	940	faehre	362694	1330	364024	2	correct	FPM	incorrect	fortbewegungsmittel	4750	365261
10	saege_correct	370044	1030	saege	371077	1470	372547	1	correct	FPM	correct	werkzeug	2500	373560
10	bluse_incorrect	376093	1010	bluse	377110	1136	378246	2	correct	FPM	incorrect	kleidungsstueck	16250	395892
11	fledermaus_word	397425	1580	fledermaus	399009	1313	400322	1	correct	WPM	correct	saeugetier	7000	400942
11	sellerie_incorrect	407992	1080	sellerie	409075	1888	410964	2	correct	FPM	incorrect	gemuese	4750	411508
11	wiege_correct	416308	1210	wiege	417524	1411	418936	1	correct	FPM	correct	moebelstueck	2500	419824
11	sessel_incorrect	422374	1040	sessel	423424	1210	424634	2	correct	FPM	incorrect	moebelstueck	3750	429673
12	300_550	431207	1200	pfeil_hoch	432423	1233	433657	1	correct	tone	correct	tone	7000	434723
12	575_825	441756	1200	pfeil_runter	442973	2145	445118	2	correct	tone	incorrect	tone	2500	445273
12	775_525	447806	1200	pfeil_hoch	449022	1506	450528	2	correct	tone	incorrect	tone	4750	451322
12	475_725	456105	1200	pfeil_runter	457322	1741	459063	2	correct	tone	incorrect	tone	16250	475904
13	moehre_word	477454	1170	moehre	478637	1118	479756	1	correct	WPM	correct	gemuese	4750	480970
13	drehstuhl_word	485753	1390	drehstuhl	487153	899	488053	1	correct	WPM	correct	moebelstueck	2500	489270
13	sichel_word	491803	1210	walze	493020	1173	494193	2	correct	WPM	incorrect	werkzeug	7000	495319
13	spatz_word	502352	1150	geier	503519	1488	505008	2	correct	WPM	incorrect	vogel	16250	522151
14	faehre_word	523684	1240	kutsche	524934	1176	526111	2	correct	WPM	incorrect	fortbewegungsmittel	2500	527201
14	harke_correct	529767	1170	harke	530951	1371	532322	1	correct	FPM	correct	werkzeug	7000	533284
14	kamel_word	540317	1190	biber	541517	1086	542603	2	correct	WPM	incorrect	saeugetier	4750	543833
14	kuerbis_word	548616	1300	radieschen	549933	932	550865	2	correct	WPM	incorrect	gemuese	3750	555916
15	adler_correct	557449	940	adler	558399	1425	559825	1	correct	FPM	correct	vogel	2500	560965
15	mantel_incorrect	563515	920	mantel	564449	1109	565558	2	correct	FPM	incorrect	kleidungsstueck	4750	567032
15	bohrmaschine_word	571832	1530	bohrmaschine	573365	1232	574597	1	correct	WPM	correct	werkzeug	7000	575348
15	kamel_incorrect	582398	1240	kamel	583647	1119	584766	2	correct	FPM	incorrect	saeugetier	3750	589697
16	325_575	591230	1200	pfeil_hoch	592447	913	593360	1	correct	tone	correct	tone	2500	594747
16	725_475	597280	1200	pfeil_runter	598497	1160	599657	1	correct	tone	correct	tone	4750	600796
16	675_425	605580	1200	pfeil_hoch	606796	1257	608053	2	correct	tone	incorrect	tone	7000	609096
16	425_675	616129	1200	pfeil_hoch	617345	957	618303	1	correct	tone	correct	tone	3750	623428
17	baer_incorrect	624962	950	baer	625928	1234	627163	2	correct	FPM	incorrect	saeugetier	2500	628478
17	tisch_word	631028	1040	tisch	632078	886	632965	1	correct	WPM	correct	moebelstueck	7000	634544
17	schal_word	641611	1040	schal	642661	997	643658	1	correct	WPM	correct	kleidungsstueck	4750	645127
17	hemd_correct	649910	1360	hemd	651277	1271	652549	1	correct	FPM	correct	kleidungsstueck	16250	669709
18	schraubenzieher_incorrect	671242	1280	schraubenzieher	672525	1627	674153	2	correct	FPM	incorrect	werkzeug	4750	674759
18	zitrone_word	679542	1400	zitrone	680958	856	681814	1	correct	WPM	correct	frucht	7000	683058
18	paprika_correct	690091	1000	paprika	691108	1626	692734	1	correct	FPM	correct	gemuese	2500	693607
18	wellensittich_correct	696174	1110	wellensittich	697291	1132	698866	1	correct	FPM	correct	vogel	16250	715973
19	elster_word	717506	1330	elster	718839	1500	720339	1	correct	WPM	correct	vogel	7000	721022
19	maurerkelle_word	728055	1390	maurerkelle	729455	663	730118	1	correct	WPM	correct	werkzeug	2500	731572
19	sichel_incorrect	734138	1170	sichel	735322	1029	736351	2	correct	FPM	incorrect	werkzeug	4750	737655
19	mantel_word	742438	1020	handschuh	743471	1077	744549	2	correct	WPM	incorrect	kleidungsstueck	3750	749721
20	pinguin_word	751271	1200	pinguin	752487	1368	753856	1	correct	WPM	correct	vogel	4750	754787
20	kokosnuss_incorrect	759587	1000	kokosnuss	760603	1846	762450	2	correct	FPM	incorrect	frucht	2500	763103
20	bluse_word	765636	1340	hose	766986	919	767906	2	correct	WPM	incorrect	kleidungsstueck	7000	769153
20	taxi_word	776186	1230	schlitten	777419	1249	778668	2	correct	WPM	incorrect	fortbewegungsmittel	3750	783469
21	kokosnuss_word	785002	1510	weintraube	786518	842	787361	2	correct	WPM	incorrect	frucht	7000	788518
21	seehund_correct	795551	1210	seehund	796768	1286	798054	1	correct	FPM	correct	saeugetier	4750	799068
21	socke_word	803851	1220	socke	805084	816	805900	1	correct	WPM	correct	kleidungsstueck	2500	807367
21	spargel_word	809900	1100	spargel	811017	740	811757	1	correct	WPM	correct	gemuese	16250	829699
22	625_375	831233	1200	pfeil_runter	832449	912	833362	1	correct	tone	correct	tone	2500	834749
22	700_450	837282	1200	pfeil_runter	838499	763	839263	1	correct	tone	correct	tone	7000	840798
22	350_600	847832	1200	pfeil_runter	849048	1105	850154	2	correct	tone	incorrect	tone	4750	851348
22	550_300	856131	1200	pfeil_hoch	857348	1662	859010	2	correct	tone	incorrect	tone	0	857348
