MDN_APH

Participant:	29
Date: 09/15/2021 13:05:50
Session: 3
Run: 2
Buttons: 1/2

block_number	stimulus_audio	time_audio	length_audio	stimulus_picture	time_picture	response_time	relative_response_time	button_response	accuracy	condition	correctness	category	ISI	time_ISI
1	weisskohl_correct	17783	1080	weisskohl	18882	590	19472	2	correct	FPM	correct	gemuese	2500	21298
1	elster_incorrect	23832	1220	elster	25065	842	25907	1	correct	FPM	incorrect	vogel	4750	27348
1	pinguin_incorrect	32131	940	pinguin	33081	1744	34826	1	correct	FPM	incorrect	vogel	7000	35647
1	socke_incorrect	42680	1590	socke	44280	843	45123	1	correct	FPM	incorrect	kleidungsstueck	3750	49980
2	700_450	51513	1200	pfeil_hoch	52730	891	53621	1	correct	tone	incorrect	tone	7000	55030
2	625_375	62062	1200	pfeil_hoch	63279	798	64078	1	correct	tone	incorrect	tone	4750	65579
2	325_575	70362	1200	pfeil_runter	71579	747	72326	1	correct	tone	incorrect	tone	2500	73878
2	600_350	76412	1200	pfeil_hoch	77628	1076	78704	1	correct	tone	incorrect	tone	16250	96210
3	550_800	97744	1200	pfeil_hoch	98960	601	99562	2	correct	tone	correct	tone	7000	101260
3	350_600	108293	1200	pfeil_hoch	109510	674	110184	2	correct	tone	correct	tone	2500	111809
3	300_550	114343	1200	pfeil_runter	115559	730	116289	1	correct	tone	incorrect	tone	4750	117859
3	800_550	122642	1200	pfeil_hoch	123859	682	124541	1	correct	tone	incorrect	tone	3750	129942
4	jeans_word	131475	1280	jeans	132758	717	133475	2	correct	WPM	correct	kleidungsstueck	4750	134991
4	kommode_word	139808	1410	bank	141224	760	141984	1	correct	WPM	incorrect	moebelstueck	7000	143324
4	kutsche_correct	150390	940	kutsche	151340	1029	152370	2	correct	FPM	correct	fortbewegungsmittel	2500	153907
4	kutsche_word	156440	1210	faehre	157657	1117	158774	1	correct	WPM	incorrect	fortbewegungsmittel	3750	163740
5	tisch_incorrect	165306	1110	tisch	166423	946	167369	1	correct	FPM	incorrect	moebelstueck	7000	168823
5	lama_word	175889	1240	baer	177139	855	177994	1	correct	WPM	incorrect	saeugetier	4750	179405
5	hose_word	184222	1240	bluse	185472	789	186261	1	correct	WPM	incorrect	kleidungsstueck	2500	187738
5	schrank_correct	190305	1040	schrank	191355	1140	192495	2	correct	FPM	correct	moebelstueck	3750	197604
6	schlitten_correct	199154	1170	schlitten	200337	1443	201781	2	correct	FPM	correct	fortbewegungsmittel	2500	202671
6	walze_word	205204	1300	sichel	206520	975	207496	1	correct	WPM	incorrect	werkzeug	7000	208720
6	dattel_word	215770	1170	ananas	216953	899	217852	1	correct	WPM	incorrect	frucht	4750	219286
6	geier_word	224103	1120	spatz	225236	1036	226272	1	correct	WPM	incorrect	vogel	16250	243901
7	schleifpapier_correct	245468	1280	schleifpapier	246751	1592	248344	2	correct	FPM	correct	werkzeug	2500	248984
7	handschuh_correct	251534	920	handschuh	252468	966	253434	2	correct	FPM	correct	kleidungsstueck	7000	255051
7	spargel_incorrect	262084	930	spargel	263017	1277	264295	1	correct	FPM	incorrect	gemuese	4750	265600
7	banane_word	270383	1320	banane	271716	1000	272717	2	correct	WPM	correct	frucht	3750	277683
8	lama_correct	279249	950	lama	280216	1391	281607	2	correct	FPM	correct	saeugetier	2500	282766
8	kirsche_incorrect	285316	900	kirsche	286232	1038	287271	1	correct	FPM	incorrect	frucht	7000	288832
8	bohrmaschine_incorrect	295898	1030	bohrmaschine	296931	1158	298090	1	correct	FPM	incorrect	werkzeug	4750	299415
8	flugzeug_word	304214	1410	flugzeug	305631	812	306444	2	correct	WPM	correct	fortbewegungsmittel	3750	311514
9	sofa_word	313081	1200	sofa	314297	688	314985	2	correct	WPM	correct	moebelstueck	2500	316597
9	saege_word	319147	1220	saege	320380	673	321053	2	correct	WPM	correct	werkzeug	4750	322663
9	handschuh_word	327446	1180	mantel	328630	766	329396	1	correct	WPM	incorrect	kleidungsstueck	7000	330963
9	ziege_word	337996	1310	ziege	339312	1128	340441	2	correct	WPM	correct	saeugetier	3750	345279
10	kiwi_word	346829	1190	kiwi	348028	1103	349132	2	correct	WPM	correct	frucht	7000	350345
10	fledermaus_incorrect	357378	1230	fledermaus	358611	1311	359923	1	correct	FPM	incorrect	saeugetier	4750	360894
10	biber_correct	365711	1240	biber	366961	1313	368274	2	correct	FPM	correct	saeugetier	2500	369227
10	schrank_word	371760	1150	sessel	372927	752	373679	1	correct	WPM	incorrect	moebelstueck	16250	391559
11	575_325	393092	1200	pfeil_runter	394309	707	395017	2	correct	tone	correct	tone	7000	396609
11	450_700	403642	1200	pfeil_hoch	404858	598	405456	2	correct	tone	correct	tone	2500	407158
11	400_650	409691	1200	pfeil_runter	410908	689	411597	1	correct	tone	incorrect	tone	4750	413208
11	425_675	417991	1200	pfeil_runter	419207	744	419952	1	correct	tone	incorrect	tone	3750	425290
12	550_300	426824	1200	pfeil_runter	428040	711	428752	2	correct	tone	correct	tone	4750	430340
12	575_825	435123	1200	pfeil_hoch	436340	593	436933	2	correct	tone	correct	tone	2500	438640
12	725_475	441173	1200	pfeil_hoch	442389	693	443082	1	correct	tone	incorrect	tone	7000	444689
12	475_725	451722	1200	pfeil_hoch	452939	573	453512	2	correct	tone	correct	tone	3750	459022
13	paprika_word	460588	1330	paprika	461921	722	462643	2	correct	WPM	correct	gemuese	4750	464105
13	weisskohl_word	468888	1160	sellerie	470054	881	470936	1	correct	WPM	incorrect	gemuese	2500	472404
13	kanu_incorrect	474937	1270	kanu	476221	1039	477260	1	correct	FPM	incorrect	fortbewegungsmittel	7000	478454
13	schaukelstuhl_word	485487	1430	schaukelstuhl	486920	887	487807	2	correct	WPM	correct	moebelstueck	16250	505285
14	eichhoernchen_incorrect	506852	1210	eichhoernchen	508069	1137	509206	1	correct	FPM	incorrect	saeugetier	4750	510368
14	weintraube_word	515152	1460	kokosnuss	516618	896	517515	1	correct	WPM	incorrect	frucht	2500	518668
14	schal_incorrect	521218	1360	schal	522584	883	523468	1	correct	FPM	incorrect	kleidungsstueck	7000	524734
14	zitrone_incorrect	531767	970	zitrone	532750	1347	534098	1	correct	FPM	incorrect	frucht	16250	551566
15	525_775	553099	1200	pfeil_runter	554316	796	555112	1	correct	tone	incorrect	tone	4750	556616
15	650_400	561399	1200	pfeil_runter	562615	767	563383	2	correct	tone	correct	tone	7000	564915
15	675_425	571948	1200	pfeil_runter	573165	709	573874	2	correct	tone	correct	tone	2500	575465
15	375_625	577998	1200	pfeil_hoch	579214	748	579963	2	correct	tone	correct	tone	3750	585297
16	radieschen_correct	586831	1440	radieschen	588280	1452	589733	2	correct	FPM	correct	gemuese	7000	590347
16	zug_incorrect	597397	930	zug	598330	1078	599408	1	correct	FPM	incorrect	fortbewegungsmittel	2500	600913
16	drehstuhl_incorrect	603446	1030	drehstuhl	604479	1249	605729	1	correct	FPM	incorrect	moebelstueck	4750	606963
16	feile_word	611746	1220	feile	612979	854	613833	2	correct	WPM	correct	werkzeug	16250	631544
17	825_575	633078	1200	pfeil_hoch	634294	920	635214	1	correct	tone	incorrect	tone	2500	636594
17	750_500	639127	1200	pfeil_runter	640344	715	641060	2	correct	tone	correct	tone	7000	642644
17	500_750	649677	1200	pfeil_runter	650893	686	651579	1	correct	tone	incorrect	tone	4750	653193
17	775_525	657976	1200	pfeil_runter	659193	586	659779	2	correct	tone	correct	tone	3750	665276
18	dattel_correct	666842	1280	dattel	668126	1613	669739	2	correct	FPM	correct	frucht	4750	670359
18	hubschrauber_word	675142	1300	hubschrauber	676458	944	677403	2	correct	WPM	correct	fortbewegungsmittel	2500	678658
18	schleifpapier_word	681208	1400	schraubenzieher	682625	1011	683636	1	correct	WPM	incorrect	werkzeug	7000	684725
18	radieschen_word	691774	1370	kuerbis	693157	1028	694186	1	correct	WPM	incorrect	gemuese	3750	699074
19	biber_word	700607	1130	kamel	701740	924	702664	1	correct	WPM	incorrect	saeugetier	7000	704123
19	maurerkelle_incorrect	711156	820	maurerkelle	711990	1367	713357	1	correct	FPM	incorrect	werkzeug	4750	714673
19	mais_word	719456	860	mais	720322	1142	721465	2	correct	WPM	correct	gemuese	2500	722972
19	hemd_word	725522	1110	hemd	726639	866	727505	2	correct	WPM	correct	kleidungsstueck	16250	745321
20	meise_word	746854	1210	moewe	748071	1032	749103	1	correct	WPM	incorrect	vogel	2500	750371
20	walze_correct	752937	1170	walze	754120	959	755080	2	correct	FPM	correct	werkzeug	4750	756454
20	moehre_incorrect	761253	1000	moehre	762270	1188	763458	1	correct	FPM	incorrect	gemuese	7000	764770
20	geier_correct	771819	1380	geier	773203	NaN	NaN	NaN	NaN	FPM	correct	vogel	16250	791618
21	seehund_word	793168	1380	seehund	794551	871	795422	2	correct	WPM	correct	saeugetier	4750	796684
21	kommode_correct	801484	1210	kommode	802701	740	803442	2	correct	FPM	correct	moebelstueck	7000	805001
21	adler_word	812050	1210	adler	813267	1026	814293	2	correct	WPM	correct	vogel	2500	815567
21	meise_correct	818117	1190	meise	819316	1218	820535	1	incorrect	FPM	correct	vogel	3750	825416
22	hose_correct	826983	1010	hose	827999	1102	829101	2	correct	FPM	correct	kleidungsstueck	7000	830499
22	schlitten_word	837549	1130	taxi	838682	694	839376	1	correct	WPM	incorrect	fortbewegungsmittel	2500	841065
22	gans_word	843598	1110	gans	844715	785	845500	2	correct	WPM	correct	vogel	4750	847115
22	weintraube_correct	851914	1000	weintraube	852931	1353	854285	2	correct	FPM	correct	frucht	0	852931
