MDN_APH

Participant:	22
Date: 07/14/2021 13:56:29
Session: 2
Run: 1
Buttons: 2/1

block_number	stimulus_audio	time_audio	length_audio	stimulus_picture	time_picture	response_time	relative_response_time	button_response	accuracy	condition	correctness	category	ISI	time_ISI
1	faehre_word	20535	1240	faehre	21798	1430	23229	1	correct	WPM	correct	fortbewegungsmittel	4750	24048
1	kohlrabi_correct	28865	1250	kohlrabi	30131	1045	31177	2	incorrect	FPM	correct	gemuese	7000	32381
1	meise_correct	39414	1190	meise	40614	1892	42506	1	correct	FPM	correct	vogel	2500	42930
1	feile_incorrect	45480	870	feile	46363	1558	47922	2	correct	FPM	incorrect	werkzeug	3750	52780
2	avocado_word	54330	1440	zwiebel	55779	1053	56833	2	correct	WPM	incorrect	gemuese	2500	57846
2	zwiebel_word	60396	1250	avocado	61662	833	62496	2	correct	WPM	incorrect	gemuese	4750	63912
2	kamel_word	68695	1190	kamel	69895	1036	70932	1	correct	WPM	correct	saeugetier	7000	72212
2	banane_incorrect	79261	890	banane	80161	1063	81225	2	correct	FPM	incorrect	frucht	3750	86561
3	harke_word	88128	1240	axt	89377	1226	90604	2	correct	WPM	incorrect	werkzeug	2500	91644
3	hocker_word	94194	1110	hocker	95310	908	96219	1	correct	WPM	correct	moebelstueck	4750	97710
3	brokkoli_word	102527	1100	brokkoli	103643	1190	104833	1	correct	WPM	correct	gemuese	7000	106043
3	sessel_word	113076	1130	sessel	114209	1317	115526	1	correct	WPM	correct	moebelstueck	16250	132875
4	regal_correct	134425	980	regal	135408	962	136371	1	correct	FPM	correct	moebelstueck	2500	137941
4	aprikose_word	140508	1440	orange	141957	1615	143573	2	correct	WPM	incorrect	frucht	7000	144024
4	rollschuh_word	151057	1150	fahrrad	152224	896	153120	2	correct	WPM	incorrect	fortbewegungsmittel	4750	154573
4	bohrmaschine_incorrect	159356	1030	bohrmaschine	160390	1235	161625	2	correct	FPM	incorrect	werkzeug	16250	179155
5	800_550	180688	1200	pfeil_runter	181905	1186	183091	1	correct	tone	correct	tone	4750	184205
5	450_700	188988	1200	pfeil_runter	190205	1025	191230	2	correct	tone	incorrect	tone	2500	192504
5	325_575	195038	1200	pfeil_hoch	196254	1331	197585	1	correct	tone	correct	tone	7000	198554
5	525_775	205587	1200	pfeil_hoch	206803	1366	208169	1	correct	tone	correct	tone	3750	212886
6	walze_correct	214420	1170	walze	215603	1056	216660	1	correct	FPM	correct	werkzeug	7000	217936
6	hubschrauber_incorrect	224986	1180	hubschrauber	226169	1239	227409	2	correct	FPM	incorrect	fortbewegungsmittel	2500	228502
6	ziege_incorrect	231069	1000	ziege	232085	946	233032	2	correct	FPM	incorrect	saeugetier	4750	234585
6	birne_correct	239385	1310	birne	240701	1069	241771	1	correct	FPM	correct	frucht	16250	259184
7	biber_correct	260717	1240	biber	261967	1217	263184	1	correct	FPM	correct	saeugetier	2500	264233
7	traktor_word	266800	1320	traktor	268133	742	268876	1	correct	WPM	correct	fortbewegungsmittel	7000	270316
7	eichhoernchen_incorrect	277349	1210	eichhoernchen	278566	1115	279681	2	correct	FPM	incorrect	saeugetier	4750	280866
7	pullover_word	285682	1290	pullover	286982	1185	288168	1	correct	WPM	correct	kleidungsstueck	16250	305481
8	schal_incorrect	307031	1360	schal	308397	1215	309612	2	correct	FPM	incorrect	kleidungsstueck	2500	310547
8	schlafanzug_correct	313114	1030	schlafanzug	314147	1342	315489	1	correct	FPM	correct	kleidungsstueck	4750	316630
8	handschuh_correct	321413	920	handschuh	322346	876	323223	1	correct	FPM	correct	kleidungsstueck	7000	324930
8	sellerie_word	331963	1110	sellerie	333079	1755	334834	2	incorrect	WPM	correct	gemuese	3750	339262
9	fahrrad_word	340812	1350	rollschuh	342178	920	343099	2	correct	WPM	incorrect	fortbewegungsmittel	4750	344328
9	weisskohl_correct	349111	1080	weisskohl	350195	1134	351329	1	correct	FPM	correct	gemuese	7000	352628
9	tisch_incorrect	359661	1110	tisch	360777	849	361626	2	correct	FPM	incorrect	moebelstueck	2500	363177
9	ente_word	365744	1220	ente	366977	648	367626	1	correct	WPM	correct	vogel	3750	373043
10	truhe_word	374577	1190	wiege	375776	938	376715	2	correct	WPM	incorrect	moebelstueck	2500	378093
10	gans_incorrect	380643	950	gans	381609	1171	382781	2	correct	FPM	incorrect	vogel	7000	384159
10	tiger_word	391225	1210	tiger	392442	786	393229	1	correct	WPM	correct	saeugetier	4750	394742
10	eule_correct	399542	1450	eule	401008	1113	402121	1	correct	FPM	correct	vogel	3750	406841
11	700_450	408375	1200	pfeil_runter	409591	885	410477	1	correct	tone	correct	tone	7000	411891
11	775_525	418924	1200	pfeil_hoch	420140	653	420794	2	correct	tone	incorrect	tone	2500	422440
11	575_325	424973	1200	pfeil_hoch	426190	1501	427691	2	correct	tone	incorrect	tone	4750	428490
11	725_475	433273	1200	pfeil_runter	434489	715	435205	1	correct	tone	correct	tone	16250	453072
12	bueffel_correct	454638	1410	bueffel	456055	1444	457499	1	correct	FPM	correct	saeugetier	4750	458155
12	orange_word	462938	1230	aprikose	464171	1522	465694	2	correct	WPM	incorrect	frucht	7000	466454
12	mantel_word	473487	1020	mantel	474520	1106	475627	1	correct	WPM	correct	kleidungsstueck	2500	477003
12	meissel_correct	479553	1170	meissel	480737	1088	481825	1	correct	FPM	correct	werkzeug	3750	486853
13	500_750	488386	1200	pfeil_hoch	489603	816	490419	1	correct	tone	correct	tone	7000	491903
13	300_550	498936	1200	pfeil_hoch	500152	1474	501627	1	correct	tone	correct	tone	4750	502452
13	550_300	507235	1200	pfeil_hoch	508451	941	509393	2	correct	tone	incorrect	tone	2500	510751
13	425_675	513285	1200	pfeil_hoch	514501	1086	515587	1	correct	tone	correct	tone	3750	520584
14	pinguin_incorrect	522117	940	pinguin	523067	1296	524364	2	correct	FPM	incorrect	vogel	7000	525634
14	kleid_word	532667	1210	hut	533883	951	534835	2	correct	WPM	incorrect	kleidungsstueck	4750	536183
14	mais_incorrect	541000	1440	mais	542449	1242	543692	2	correct	FPM	incorrect	gemuese	2500	544516
14	schaukelstuhl_incorrect	547083	940	schaukelstuhl	548032	1000	549033	2	correct	FPM	incorrect	moebelstueck	3750	554382
15	fuchs_word	555915	1100	wal	557032	779	557811	2	correct	WPM	incorrect	saeugetier	7000	559432
15	weintraube_correct	566465	1000	weintraube	567481	1299	568781	1	correct	FPM	correct	frucht	2500	569981
15	kirsche_incorrect	572514	900	kirsche	573431	1227	574659	2	correct	FPM	incorrect	frucht	4750	576031
15	schiff_correct	580847	1150	schiff	582014	920	582934	1	correct	FPM	correct	fortbewegungsmittel	3750	588147
16	sichel_word	589680	1210	sichel	590896	878	591775	1	correct	WPM	correct	werkzeug	2500	593196
16	zug_incorrect	595730	930	zug	596663	1657	598320	2	correct	FPM	incorrect	fortbewegungsmittel	7000	599246
16	blaubeere_word	606296	1450	blaubeere	607762	1469	609231	1	correct	WPM	correct	frucht	4750	609812
16	schrank_correct	614595	1040	schrank	615645	1162	616808	1	correct	FPM	correct	moebelstueck	16250	634394
17	475_725	635927	1200	pfeil_runter	637144	761	637905	2	correct	tone	incorrect	tone	7000	639443
17	750_500	646476	1200	pfeil_hoch	647693	1439	649133	2	correct	tone	incorrect	tone	4750	649993
17	375_625	654776	1200	pfeil_runter	655992	1496	657489	2	correct	tone	incorrect	tone	2500	658292
17	600_350	660826	1200	pfeil_runter	662042	1062	663105	1	correct	tone	correct	tone	3750	668125
18	650_400	669658	1200	pfeil_hoch	670875	1040	671915	2	correct	tone	incorrect	tone	4750	673175
18	350_600	677958	1200	pfeil_runter	679174	1415	680590	2	correct	tone	incorrect	tone	2500	681474
18	575_825	684007	1200	pfeil_runter	685224	898	686123	2	correct	tone	incorrect	tone	7000	687524
18	625_375	694557	1200	pfeil_runter	695773	1161	696935	1	correct	tone	correct	tone	16250	714355
19	jeans_incorrect	715922	1300	jeans	717239	1082	718321	2	correct	FPM	incorrect	kleidungsstueck	4750	719438
19	wellensittich_word	724255	1510	reiher	725771	846	726618	2	correct	WPM	incorrect	vogel	2500	727771
19	hut_word	730321	1120	kleid	731454	767	732222	2	correct	WPM	incorrect	kleidungsstueck	7000	733838
19	kutsche_correct	740871	940	kutsche	741820	797	742618	1	correct	FPM	correct	fortbewegungsmittel	16250	760669
20	550_800	762203	1200	pfeil_runter	763419	855	764274	2	correct	tone	incorrect	tone	7000	765719
20	400_650	772752	1200	pfeil_hoch	773968	1461	775430	1	correct	tone	correct	tone	4750	776268
20	825_575	781051	1200	pfeil_runter	782268	1012	783280	1	correct	tone	correct	tone	2500	784568
20	675_425	787101	1200	pfeil_hoch	788318	815	789133	2	correct	tone	incorrect	tone	3750	794400
21	kokosnuss_word	795934	1510	kokosnuss	797450	1111	798562	1	correct	WPM	correct	frucht	4750	799450
21	wiege_word	804250	1190	truhe	805450	1485	806935	1	incorrect	WPM	incorrect	moebelstueck	2500	807766
21	wal_word	810333	1100	fuchs	811449	2078	813527	1	incorrect	WPM	incorrect	saeugetier	7000	813849
21	moehre_incorrect	820882	1000	moehre	821899	1085	822984	2	correct	FPM	incorrect	gemuese	3750	828182
22	reiher_word	829715	1180	wellensittich	830898	928	831826	2	correct	WPM	incorrect	vogel	7000	833231
22	hobel_word	840281	1190	hobel	841481	741	842222	1	correct	WPM	correct	werkzeug	2500	843797
22	moewe_word	846331	1240	moewe	847581	839	848420	2	incorrect	WPM	correct	vogel	4750	849847
22	axt_word	854630	1140	harke	855780	1056	856836	2	correct	WPM	incorrect	werkzeug	0	855780
