MDN_APH

Participant:	28
Date: 07/30/2021 17:55:19
Session: 1
Run: 2
Buttons: 1/2

block_number	stimulus_audio	time_audio	length_audio	stimulus_picture	time_picture	response_time	relative_response_time	button_response	accuracy	condition	correctness	category	ISI	time_ISI
1	fuchs_correct	129843	1060	fuchs	130908	649	131558	2	correct	FPM	correct	saeugetier	4750	133358
1	biber_incorrect	138142	960	biber	139108	960	140069	1	correct	FPM	incorrect	saeugetier	7000	141658
1	moewe_word	148691	1240	moewe	149941	742	150683	2	correct	WPM	correct	vogel	2500	152207
1	bank_word	154774	1160	kommode	155940	1039	156980	1	correct	WPM	incorrect	moebelstueck	3750	162073
2	baer_correct	163607	940	baer	164556	819	165376	2	correct	FPM	correct	saeugetier	7000	167123
2	rollschuh_word	174156	1150	fahrrad	175323	863	176186	1	correct	WPM	incorrect	fortbewegungsmittel	2500	177672
2	sofa_incorrect	180239	1220	sofa	181472	1186	182659	1	correct	FPM	incorrect	moebelstueck	4750	183755
2	avocado_word	188538	1440	zwiebel	189988	694	190683	1	correct	WPM	incorrect	gemuese	16250	208337
3	axt_correct	209871	1290	axt	211170	1410	212581	2	correct	FPM	correct	werkzeug	2500	213387
3	tisch_word	215954	1040	tisch	217003	768	217772	2	correct	WPM	correct	moebelstueck	4750	219470
3	fuchs_word	224253	1100	wal	225370	699	226069	1	correct	WPM	incorrect	saeugetier	7000	227769
3	truhe_correct	234802	1200	truhe	236019	1032	237051	2	correct	FPM	correct	moebelstueck	3750	242102
4	sichel_word	243635	1210	sichel	244852	721	245573	2	correct	WPM	correct	werkzeug	4750	247152
4	bluse_word	251968	1340	hose	253318	821	254139	1	correct	WPM	incorrect	kleidungsstueck	7000	255484
4	saege_incorrect	262534	1180	saege	263717	1039	264756	1	correct	FPM	incorrect	werkzeug	2500	266050
4	pinguin_word	268617	1200	pinguin	269834	553	270387	2	correct	WPM	correct	vogel	16250	288416
5	550_300	289949	1200	pfeil_runter	291166	1716	292882	2	correct	tone	correct	tone	2500	293466
5	500_750	295999	1200	pfeil_runter	297215	1344	298560	1	correct	tone	incorrect	tone	7000	299515
5	575_325	306548	1200	pfeil_runter	307765	1459	309224	2	correct	tone	correct	tone	4750	310065
5	525_775	314848	1200	pfeil_runter	316064	1654	317719	1	correct	tone	incorrect	tone	16250	334646
6	taxi_correct	336180	1330	taxi	337513	835	338348	2	correct	FPM	correct	fortbewegungsmittel	7000	339696
6	kiwi_incorrect	346762	1250	kiwi	348029	1689	349719	1	correct	FPM	incorrect	frucht	2500	350279
6	schraubenzieher_correct	352812	1130	schraubenzieher	353945	1233	355179	2	correct	FPM	correct	werkzeug	4750	356329
6	eichhoernchen_word	361128	1430	eichhoernchen	362561	862	363424	2	correct	WPM	correct	saeugetier	3750	368428
7	625_375	369961	1200	pfeil_hoch	371178	1843	373021	1	correct	tone	incorrect	tone	7000	373477
7	400_650	380510	1200	pfeil_runter	381727	914	382641	1	correct	tone	incorrect	tone	4750	384027
7	550_800	388810	1200	pfeil_hoch	390027	994	391021	2	correct	tone	correct	tone	2500	392326
7	725_475	394860	1200	pfeil_hoch	396076	966	397043	2	incorrect	tone	incorrect	tone	3750	402159
8	425_675	403692	1200	pfeil_runter	404909	864	405773	1	correct	tone	incorrect	tone	7000	407209
8	775_525	414242	1200	pfeil_runter	415458	1071	416530	2	correct	tone	correct	tone	2500	417758
8	375_625	420291	1200	pfeil_hoch	421508	780	422289	2	correct	tone	correct	tone	4750	423808
8	825_575	428591	1200	pfeil_hoch	429807	1664	431472	1	correct	tone	incorrect	tone	3750	435890
9	kokosnuss_word	437424	1510	kokosnuss	438940	919	439860	2	correct	WPM	correct	frucht	4750	440940
9	seehund_incorrect	445740	990	seehund	446740	1228	447969	1	correct	FPM	incorrect	saeugetier	2500	449256
9	ananas_word	451823	1320	dattel	453156	790	453947	1	correct	WPM	incorrect	frucht	7000	455339
9	taxi_word	462389	1230	schlitten	463622	1062	464685	1	correct	WPM	incorrect	fortbewegungsmittel	16250	482188
10	schrank_incorrect	483721	990	schrank	484721	1012	485734	1	correct	FPM	incorrect	moebelstueck	7000	487237
10	kutsche_incorrect	494270	1320	kutsche	495604	1077	496681	1	correct	FPM	incorrect	fortbewegungsmittel	4750	497787
10	moehre_word	502603	1170	moehre	503786	700	504487	2	correct	WPM	correct	gemuese	2500	506120
10	handschuh_incorrect	508653	1130	handschuh	509786	800	510586	1	correct	FPM	incorrect	kleidungsstueck	3750	515952
11	axt_word	517486	1140	harke	518636	802	519438	1	correct	WPM	incorrect	werkzeug	7000	521002
11	schal_word	528052	1040	schal	529102	1088	530190	2	correct	WPM	correct	kleidungsstueck	4750	531568
11	ananas_correct	536351	1310	ananas	537668	1809	539477	2	correct	FPM	correct	frucht	2500	539868
11	walze_incorrect	542401	1230	walze	543634	806	544441	1	correct	FPM	incorrect	werkzeug	16250	562200
12	spatz_word	563766	1150	geier	564933	742	565675	1	correct	WPM	incorrect	vogel	4750	567283
12	zug_word	572099	960	zug	573066	708	573775	2	correct	WPM	correct	fortbewegungsmittel	7000	575616
12	weintraube_incorrect	582649	980	weintraube	583632	1200	584833	1	correct	FPM	incorrect	frucht	2500	586165
12	kamel_word	588698	1190	kamel	589898	589	590488	2	correct	WPM	correct	saeugetier	3750	595998
13	sellerie_word	597531	1110	sellerie	598648	985	599633	2	correct	WPM	correct	gemuese	4750	601047
13	flugzeug_incorrect	605847	870	flugzeug	606730	1087	607818	1	correct	FPM	incorrect	fortbewegungsmittel	2500	609364
13	reiher_word	611897	1180	wellensittich	613080	748	613828	1	correct	WPM	incorrect	vogel	7000	615413
13	paprika_incorrect	622463	1130	paprika	623596	963	624559	1	correct	FPM	incorrect	gemuese	16250	642262
14	bluse_correct	643795	1020	bluse	644828	692	645520	2	correct	FPM	correct	kleidungsstueck	7000	647311
14	avocado_correct	654344	1290	avocado	655644	927	656572	2	correct	FPM	correct	gemuese	4750	657861
14	kirsche_word	662677	1190	kirsche	663877	676	664554	2	correct	WPM	correct	frucht	2500	666194
14	faehre_word	668727	1240	faehre	669977	676	670653	2	correct	WPM	correct	fortbewegungsmittel	3750	676026
15	675_425	677560	1200	pfeil_runter	678776	1514	680290	1	incorrect	tone	correct	tone	2500	681076
15	300_550	683609	1200	pfeil_runter	684826	1223	686050	1	correct	tone	incorrect	tone	7000	687126
15	350_600	694159	1200	pfeil_hoch	695375	805	696180	2	correct	tone	correct	tone	4750	697675
15	750_500	702458	1200	pfeil_runter	703675	912	704587	2	correct	tone	correct	tone	16250	722257
16	baer_word	723807	1130	lama	724940	779	725719	1	correct	WPM	incorrect	saeugetier	4750	727323
16	reiher_correct	732106	1020	reiher	733140	880	734020	2	correct	FPM	correct	vogel	2500	735623
16	orange_correct	738156	1300	orange	739473	1207	740680	2	correct	FPM	correct	frucht	7000	741672
16	mantel_word	748705	1020	mantel	749739	1977	751717	1	incorrect	WPM	correct	kleidungsstueck	3750	756005
17	meise_incorrect	757538	1090	meise	758638	982	759620	1	correct	FPM	incorrect	vogel	4750	761055
17	bohrmaschine_word	765871	1530	bohrmaschine	767404	787	768192	2	correct	WPM	correct	werkzeug	2500	769387
17	orange_word	771921	1230	aprikose	773154	2514	775669	1	correct	WPM	incorrect	frucht	7000	775437
17	hemd_incorrect	782487	1080	hemd	783570	1081	784652	1	correct	FPM	incorrect	kleidungsstueck	3750	789786
18	adler_incorrect	791353	1210	adler	792569	1107	793677	1	correct	FPM	incorrect	vogel	2500	794869
18	rollschuh_correct	797403	990	rollschuh	798402	779	799182	2	correct	FPM	correct	fortbewegungsmittel	4750	800919
18	weisskohl_incorrect	805702	970	weisskohl	806685	1058	807743	1	correct	FPM	incorrect	gemuese	7000	809218
18	spatz_correct	816251	1460	spatz	817718	NaN	NaN	NaN	NaN	FPM	correct	vogel	3750	823551
19	650_400	825084	1200	pfeil_runter	826301	1360	827661	2	correct	tone	correct	tone	2500	828601
19	475_725	831134	1200	pfeil_hoch	832350	831	833182	2	correct	tone	correct	tone	7000	834650
19	700_450	841683	1200	pfeil_hoch	842900	1985	844885	1	correct	tone	incorrect	tone	4750	845200
19	325_575	849983	1200	pfeil_runter	851199	914	852114	1	correct	tone	incorrect	tone	3750	857282
20	kleid_correct	858816	1430	kleid	860249	1209	861459	2	correct	FPM	correct	kleidungsstueck	7000	862332
20	kuerbis_word	869398	1300	radieschen	870715	819	871534	1	correct	WPM	incorrect	gemuese	2500	872915
20	kuerbis_correct	875448	1350	kuerbis	876814	1726	878541	2	correct	FPM	correct	gemuese	4750	878964
20	schraubenzieher_word	883781	1420	schleifpapier	885214	760	885974	1	correct	WPM	incorrect	werkzeug	3750	891064
21	800_550	892597	1200	pfeil_hoch	893813	1270	895084	1	correct	tone	incorrect	tone	2500	896113
21	450_700	898647	1200	pfeil_hoch	899863	824	900688	2	correct	tone	correct	tone	7000	902163
21	575_825	909196	1200	pfeil_hoch	910412	545	910958	2	correct	tone	correct	tone	4750	912712
21	600_350	917496	1200	pfeil_hoch	918712	1343	920055	1	correct	tone	incorrect	tone	16250	937294
22	bank_correct	938828	1240	bank	940077	1156	941234	2	correct	FPM	correct	moebelstueck	2500	942344
22	kleid_word	944877	1210	hut	946094	669	946763	1	correct	WPM	incorrect	kleidungsstueck	4750	948394
22	sessel_word	953177	1130	sessel	954310	1659	955969	1	incorrect	WPM	correct	moebelstueck	7000	956693
22	truhe_word	963726	1190	wiege	964926	935	965862	1	correct	WPM	incorrect	moebelstueck	0	964926
