MDN_APH

Participant:	24
Date: 08/05/2021 11:14:04
Session: 3
Run: 2
Buttons: 2/1

block_number	stimulus_audio	time_audio	length_audio	stimulus_picture	time_picture	response_time	relative_response_time	button_response	accuracy	condition	correctness	category	ISI	time_ISI
1	fahrrad_incorrect	18383	990	fahrrad	19382	1178	20560	2	correct	FPM	incorrect	fortbewegungsmittel	4750	21898
1	hut_word	26681	1120	kleid	27815	736	28551	2	correct	WPM	incorrect	kleidungsstueck	7000	30198
1	meise_word	37247	1210	meise	38464	1000	39464	1	correct	WPM	correct	vogel	2500	40764
1	sofa_word	43330	1200	tisch	44547	723	45270	2	correct	WPM	incorrect	moebelstueck	3750	50630
2	wiege_incorrect	52196	1200	wiege	53413	751	54164	2	correct	FPM	incorrect	moebelstueck	4750	55713
2	birne_correct	60513	1310	birne	61829	949	62778	1	correct	FPM	correct	frucht	2500	64029
2	regal_correct	66596	980	regal	67579	1199	68778	1	correct	FPM	correct	moebelstueck	7000	70112
2	flugzeug_incorrect	77162	870	flugzeug	78045	909	78954	2	correct	FPM	incorrect	fortbewegungsmittel	16250	96960
3	750_500	98494	1200	pfeil_hoch	99710	846	100557	2	correct	tone	incorrect	tone	4750	102010
3	475_725	106793	1200	pfeil_runter	108010	936	108946	2	correct	tone	incorrect	tone	2500	110309
3	400_650	112843	1200	pfeil_hoch	114059	604	114664	1	correct	tone	correct	tone	7000	116359
3	500_750	123392	1200	pfeil_hoch	124609	565	125174	1	correct	tone	correct	tone	3750	130675
4	800_550	132208	1200	pfeil_runter	133425	899	134324	1	correct	tone	correct	tone	2500	135725
4	725_475	138258	1200	pfeil_runter	139474	591	140065	1	correct	tone	correct	tone	4750	141774
4	375_625	146557	1200	pfeil_runter	147774	990	148764	2	correct	tone	incorrect	tone	7000	150074
4	575_825	157107	1200	pfeil_runter	158323	797	159121	2	correct	tone	incorrect	tone	3750	164406
5	eule_correct	165973	1450	eule	167439	985	168425	1	correct	FPM	correct	vogel	7000	169489
5	hut_incorrect	176539	1430	hut	177972	755	178727	2	correct	FPM	incorrect	kleidungsstueck	2500	180055
5	walze_word	182605	1300	walze	183922	1210	185132	1	correct	WPM	correct	werkzeug	4750	186121
5	kiwi_word	190938	1190	kirsche	192138	830	192969	2	correct	WPM	incorrect	frucht	16250	210737
6	325_575	212270	1200	pfeil_hoch	213486	922	214409	1	correct	tone	correct	tone	4750	215786
6	550_800	220569	1200	pfeil_runter	221786	748	222535	2	correct	tone	incorrect	tone	7000	224086
6	450_700	231119	1200	pfeil_runter	232335	740	233076	2	correct	tone	incorrect	tone	2500	234635
6	575_325	237168	1200	pfeil_hoch	238385	1080	239465	2	correct	tone	incorrect	tone	16250	256967
7	hose_word	258534	1240	hose	259784	777	260561	1	correct	WPM	correct	kleidungsstueck	2500	262050
7	paprika_incorrect	264617	1130	paprika	265750	1029	266779	2	correct	FPM	incorrect	gemuese	7000	268133
7	weisskohl_word	275183	1160	weisskohl	276349	879	277229	1	correct	WPM	correct	gemuese	4750	278699
7	sichel_correct	283499	1230	sichel	284732	1234	285967	1	correct	FPM	correct	werkzeug	16250	303298
8	hemd_incorrect	304848	1080	hemd	305931	848	306779	2	correct	FPM	incorrect	kleidungsstueck	7000	308364
8	wellensittich_word	315397	1510	reiher	316913	657	317571	2	correct	WPM	incorrect	vogel	2500	318913
8	sofa_incorrect	321480	1220	sofa	322713	858	323571	2	correct	FPM	incorrect	moebelstueck	4750	324996
8	zwiebel_incorrect	329813	1290	zwiebel	331113	953	332066	2	correct	FPM	incorrect	gemuese	3750	337096
9	schrank_word	338662	1150	schrank	339829	851	340680	1	correct	WPM	correct	moebelstueck	7000	342179
9	lama_word	349245	1240	lama	350495	833	351329	1	correct	WPM	correct	saeugetier	4750	352761
9	bueffel_correct	357578	1410	bueffel	358994	1735	360729	1	correct	FPM	correct	saeugetier	2500	361094
9	mantel_correct	363644	1130	mantel	364777	992	365769	2	incorrect	FPM	correct	kleidungsstueck	16250	383443
10	kokosnuss_correct	385009	980	kokosnuss	385993	886	386879	2	incorrect	FPM	correct	frucht	7000	388526
10	wellensittich_incorrect	395575	1020	wellensittich	396609	940	397549	2	correct	FPM	incorrect	vogel	4750	399092
10	wiege_word	403875	1190	truhe	405075	765	405840	2	correct	WPM	incorrect	moebelstueck	2500	407391
10	kamel_correct	409958	960	kamel	410924	706	411631	1	correct	FPM	correct	saeugetier	3750	417257
11	kommode_word	418807	1410	kommode	420224	835	421059	1	correct	WPM	correct	moebelstueck	4750	422324
11	sellerie_correct	427140	970	sellerie	428123	1327	429451	1	correct	FPM	correct	gemuese	2500	430656
11	seehund_word	433206	1380	eichhoernchen	434590	783	435373	2	correct	WPM	incorrect	saeugetier	7000	436723
11	handschuh_word	443772	1180	handschuh	444956	715	445671	1	correct	WPM	correct	kleidungsstueck	3750	451072
12	weintraube_word	452622	1460	weintraube	454088	790	454879	1	correct	WPM	correct	frucht	4750	456138
12	fahrrad_word	460955	1350	rollschuh	462321	753	463074	2	correct	WPM	incorrect	fortbewegungsmittel	2500	464471
12	sessel_correct	467021	990	sessel	468021	957	468978	1	correct	FPM	correct	moebelstueck	7000	470537
12	saege_word	477604	1220	bohrmaschine	478837	800	479637	2	correct	WPM	incorrect	werkzeug	3750	484903
13	kohlrabi_correct	486453	1250	kohlrabi	487720	961	488681	2	incorrect	FPM	correct	gemuese	7000	489970
13	dattel_word	497019	1170	dattel	498202	734	498937	1	correct	WPM	correct	frucht	2500	500536
13	zwiebel_word	503069	1250	avocado	504335	595	504931	2	correct	WPM	incorrect	gemuese	4750	506585
13	aprikose_incorrect	511402	1300	aprikose	512718	NaN	NaN	NaN	NaN	FPM	incorrect	frucht	3750	518701
14	wal_incorrect	520251	1060	wal	521318	938	522256	2	correct	FPM	incorrect	saeugetier	2500	523767
14	adler_word	526334	1210	pinguin	527551	813	528364	2	correct	WPM	incorrect	vogel	7000	529850
14	kutsche_word	536900	1210	kutsche	538117	NaN	NaN	NaN	NaN	WPM	correct	fortbewegungsmittel	4750	540416
14	hemd_word	545250	1110	schal	546366	711	547077	2	correct	WPM	incorrect	kleidungsstueck	3750	552549
15	meissel_correct	554099	1170	meissel	555282	1181	556463	1	correct	FPM	correct	werkzeug	7000	557615
15	harke_word	564648	1240	axt	565898	835	566734	2	correct	WPM	incorrect	werkzeug	4750	568165
15	harke_incorrect	572965	1290	harke	574264	896	575161	2	correct	FPM	incorrect	werkzeug	2500	576481
15	aprikose_word	579014	1440	orange	580464	967	581431	2	correct	WPM	incorrect	frucht	3750	586314
16	paprika_word	587864	1330	moehre	589197	737	589935	2	correct	WPM	incorrect	gemuese	2500	591380
16	geier_word	593963	1120	geier	595096	1260	596357	1	correct	WPM	correct	vogel	4750	597480
16	seehund_incorrect	602296	990	seehund	603296	870	604167	2	correct	FPM	incorrect	saeugetier	7000	605812
16	schlafanzug_correct	612862	1030	schlafanzug	613895	885	614781	1	correct	FPM	correct	kleidungsstueck	3750	620162
17	625_375	621695	1200	pfeil_runter	622911	938	623850	1	correct	tone	correct	tone	7000	625211
17	300_550	632244	1200	pfeil_hoch	633461	705	634167	1	correct	tone	correct	tone	4750	635761
17	775_525	640544	1200	pfeil_hoch	641760	1268	643028	2	correct	tone	incorrect	tone	2500	644060
17	425_675	646593	1200	pfeil_hoch	647810	752	648563	1	correct	tone	correct	tone	16250	666392
18	adler_incorrect	667975	1210	adler	669192	1172	670365	2	correct	FPM	incorrect	vogel	4750	671492
18	radieschen_word	676308	1370	radieschen	677691	1078	678770	1	correct	WPM	correct	gemuese	7000	679825
18	kiwi_incorrect	686891	1250	kiwi	688157	968	689126	2	correct	FPM	incorrect	frucht	2500	690407
18	schleifpapier_word	692974	1400	schleifpapier	694390	885	695276	1	correct	WPM	correct	werkzeug	3750	700273
19	faehre_correct	701840	1320	faehre	703173	1384	704558	1	correct	FPM	correct	fortbewegungsmittel	2500	705356
19	moewe_correct	707906	1090	moewe	709006	962	709969	1	correct	FPM	correct	vogel	7000	711423
19	flugzeug_word	718489	1410	zug	719905	872	720778	2	correct	WPM	incorrect	fortbewegungsmittel	4750	722005
19	saege_incorrect	726822	1180	saege	728005	875	728880	2	correct	FPM	incorrect	werkzeug	16250	746620
20	825_575	748154	1200	pfeil_runter	749370	796	750167	1	correct	tone	correct	tone	2500	751670
20	350_600	754203	1200	pfeil_runter	755420	1038	756458	2	correct	tone	incorrect	tone	4750	757720
20	600_350	762503	1200	pfeil_runter	763719	915	764635	1	correct	tone	correct	tone	7000	766019
20	650_400	773052	1200	pfeil_hoch	774269	866	775135	2	correct	tone	incorrect	tone	3750	780352
21	550_300	781885	1200	pfeil_hoch	783102	1065	784167	2	correct	tone	incorrect	tone	7000	785401
21	525_775	792434	1200	pfeil_hoch	793651	713	794364	1	correct	tone	correct	tone	2500	795951
21	700_450	798484	1200	pfeil_runter	799701	763	800464	1	correct	tone	correct	tone	4750	802000
21	675_425	806784	1200	pfeil_hoch	808000	880	808881	2	correct	tone	incorrect	tone	16250	826582
22	biber_word	828149	1130	biber	829282	885	830168	1	correct	WPM	correct	saeugetier	2500	831665
22	wal_word	834199	1100	fuchs	835315	1117	836432	2	correct	WPM	incorrect	saeugetier	7000	837715
22	schiff_correct	844765	1150	schiff	845931	1246	847178	1	correct	FPM	correct	fortbewegungsmittel	4750	848281
22	schlitten_word	853114	1130	schlitten	854247	814	855062	1	correct	WPM	correct	fortbewegungsmittel	0	854247
