MDN_APH

Participant:	28
Date: 07/30/2021 17:40:33
Session: 1
Run: 1
Buttons: 1/2

block_number	stimulus_audio	time_audio	length_audio	stimulus_picture	time_picture	response_time	relative_response_time	button_response	accuracy	condition	correctness	category	ISI	time_ISI
1	schlafanzug_correct	24816	1030	schlafanzug	25865	1765	27630	2	correct	FPM	correct	kleidungsstueck	4750	28331
1	axt_word	33131	1140	axt	34281	734	35015	2	correct	WPM	correct	werkzeug	7000	36647
1	sellerie_word	43697	1110	weisskohl	44814	1311	46125	1	correct	WPM	incorrect	gemuese	2500	47213
1	eule_word	49780	1220	ente	51013	NaN	NaN	NaN	NaN	WPM	incorrect	vogel	3750	57079
2	maurerkelle_word	58629	1390	maurerkelle	60029	1578	61608	1	incorrect	WPM	correct	werkzeug	7000	62146
2	fahrrad_incorrect	69196	990	fahrrad	70195	1632	71828	1	correct	FPM	incorrect	fortbewegungsmittel	4750	72712
2	mantel_correct	77528	1130	mantel	78662	869	79531	2	correct	FPM	correct	kleidungsstueck	2500	81045
2	wellensittich_incorrect	83595	1020	wellensittich	84628	2043	86672	1	correct	FPM	incorrect	vogel	16250	103393
3	600_350	104927	1200	pfeil_runter	106143	1264	107407	1	incorrect	tone	correct	tone	4750	108443
3	475_725	113226	1200	pfeil_runter	114443	1861	116305	1	correct	tone	incorrect	tone	2500	116743
3	800_550	119276	1200	pfeil_runter	120492	1128	121621	2	correct	tone	correct	tone	7000	122792
3	750_500	129825	1200	pfeil_hoch	131042	885	131928	1	correct	tone	incorrect	tone	3750	137125
4	fuchs_word	138675	1100	fuchs	139791	1995	141787	2	correct	WPM	correct	saeugetier	4750	142191
4	feile_incorrect	146974	870	feile	147857	1060	148918	1	correct	FPM	incorrect	werkzeug	7000	150491
4	kleid_word	157540	1210	kleid	158757	1072	159829	2	correct	WPM	correct	kleidungsstueck	2500	161057
4	moewe_correct	163607	1090	moewe	164706	1221	165928	2	correct	FPM	correct	vogel	16250	183405
5	700_450	184939	1200	pfeil_runter	186155	2034	188190	1	incorrect	tone	correct	tone	7000	188455
5	625_375	195488	1200	pfeil_runter	196705	1977	198682	1	incorrect	tone	correct	tone	2500	199004
5	650_400	201538	1200	pfeil_hoch	202754	1332	204087	2	incorrect	tone	incorrect	tone	4750	205054
5	575_825	209837	1200	pfeil_runter	211054	NaN	NaN	NaN	NaN	tone	incorrect	tone	16250	229636
6	bueffel_word	231203	1150	tiger	232369	2116	234486	2	incorrect	WPM	incorrect	saeugetier	7000	234719
6	faehre_word	241785	1240	kutsche	243035	1883	244918	2	incorrect	WPM	incorrect	fortbewegungsmittel	2500	245302
6	mais_incorrect	247835	1440	mais	249285	2194	251480	2	incorrect	FPM	incorrect	gemuese	4750	251351
6	eule_correct	256151	1450	eule	257618	1762	259380	2	correct	FPM	correct	vogel	3750	263451
7	meissel_word	265001	1190	hobel	266200	2207	268408	1	correct	WPM	incorrect	werkzeug	2500	268517
7	meissel_correct	271067	1170	meissel	272250	1084	273335	2	correct	FPM	correct	werkzeug	7000	274583
7	gans_incorrect	281616	950	gans	282583	2634	285217	1	correct	FPM	incorrect	vogel	4750	285133
7	aprikose_incorrect	289933	1300	aprikose	291249	NaN	NaN	NaN	NaN	FPM	incorrect	frucht	3750	297232
8	regal_word	298799	1190	hocker	299998	2799	302797	1	correct	WPM	incorrect	moebelstueck	2500	302315
8	zitrone_word	304865	1400	zitrone	306281	1449	307731	2	correct	WPM	correct	frucht	4750	308381
8	ziege_incorrect	313164	1000	ziege	314181	999	315181	1	correct	FPM	incorrect	saeugetier	7000	316681
8	sichel_correct	323747	1230	sichel	324980	NaN	NaN	NaN	NaN	FPM	correct	werkzeug	3750	331047
9	spargel_word	332597	1100	spargel	333713	875	334589	2	correct	WPM	correct	gemuese	7000	336113
9	avocado_word	343163	1440	avocado	344613	2107	346721	2	correct	WPM	correct	gemuese	2500	346679
9	schlafanzug_word	349246	1530	pullover	350779	1396	352175	1	correct	WPM	incorrect	kleidungsstueck	4750	352762
9	rollschuh_word	357562	1150	rollschuh	358728	2190	360919	2	correct	WPM	correct	fortbewegungsmittel	3750	364861
10	450_700	366395	1200	pfeil_runter	367611	1710	369321	1	correct	tone	incorrect	tone	2500	369911
10	725_475	372444	1200	pfeil_runter	373661	1971	375632	1	incorrect	tone	correct	tone	7000	375961
10	350_600	382994	1200	pfeil_runter	384210	1818	386028	1	correct	tone	incorrect	tone	4750	386510
10	550_300	391293	1200	pfeil_hoch	392510	1914	394424	1	correct	tone	incorrect	tone	16250	411092
11	zwiebel_incorrect	412642	1290	zwiebel	413942	2474	416417	1	correct	FPM	incorrect	gemuese	2500	416158
11	bueffel_correct	418725	1410	bueffel	420141	996	421138	2	correct	FPM	correct	saeugetier	7000	422241
11	hubschrauber_incorrect	429274	1180	hubschrauber	430457	836	431294	1	correct	FPM	incorrect	fortbewegungsmittel	4750	432791
11	birne_correct	437590	1310	birne	438907	1418	440326	2	correct	FPM	correct	frucht	3750	444890
12	kokosnuss_word	446440	1510	weintraube	447956	1279	449236	1	correct	WPM	incorrect	frucht	2500	449956
12	sessel_correct	452506	990	sessel	453506	720	454227	2	correct	FPM	correct	moebelstueck	7000	456023
12	kokosnuss_correct	463072	980	kokosnuss	464055	2171	466227	2	correct	FPM	correct	frucht	4750	466589
12	reiher_word	471405	1180	reiher	472588	1339	473928	2	correct	WPM	correct	vogel	3750	478705
13	moewe_word	480255	1240	meise	481504	861	482366	1	correct	WPM	incorrect	vogel	4750	483771
13	wiege_incorrect	488571	1200	wiege	489787	1509	491297	1	correct	FPM	incorrect	moebelstueck	7000	492087
13	sessel_word	499154	1130	schrank	500287	851	501138	1	correct	WPM	incorrect	moebelstueck	2500	502670
13	kohlrabi_word	505220	1310	brokkoli	506536	1294	507831	1	correct	WPM	incorrect	gemuese	16250	525019
14	truhe_word	526585	1190	truhe	527785	1010	528796	2	correct	WPM	correct	moebelstueck	2500	530102
14	wal_incorrect	532652	1060	wal	533718	1245	534963	1	correct	FPM	incorrect	saeugetier	4750	536168
14	kamel_word	540968	1190	biber	542168	1069	543237	1	correct	WPM	incorrect	saeugetier	7000	544484
14	regal_correct	551534	980	regal	552517	1710	554227	2	correct	FPM	correct	moebelstueck	3750	558833
15	elster_word	560383	1330	elster	561716	1105	562821	2	correct	WPM	correct	vogel	7000	563900
15	kamel_correct	570949	960	kamel	571916	858	572774	2	correct	FPM	correct	saeugetier	4750	574466
15	drehstuhl_word	579282	1390	drehstuhl	580682	654	581337	2	correct	WPM	correct	moebelstueck	2500	582798
15	orange_word	585348	1230	orange	586582	1888	588470	1	incorrect	WPM	correct	frucht	16250	605147
16	400_650	606681	1200	pfeil_hoch	607897	922	608820	2	correct	tone	correct	tone	7000	610197
16	300_550	617230	1200	pfeil_hoch	618446	692	619139	2	correct	tone	correct	tone	4750	620746
16	825_575	625529	1200	pfeil_runter	626746	2749	629495	2	correct	tone	correct	tone	2500	629046
16	375_625	631579	1200	pfeil_runter	632796	NaN	NaN	NaN	NaN	tone	incorrect	tone	3750	638879
17	socke_word	640428	1220	socke	641662	835	642498	2	correct	WPM	correct	kleidungsstueck	4750	643945
17	hut_incorrect	648745	1430	hut	650178	790	650968	1	correct	FPM	incorrect	kleidungsstueck	2500	652261
17	sichel_word	654811	1210	walze	656027	992	657020	1	correct	WPM	incorrect	werkzeug	7000	658327
17	schiff_correct	665394	1150	schiff	666560	1272	667832	2	correct	FPM	correct	fortbewegungsmittel	3750	672693
18	575_325	674227	1200	pfeil_hoch	675443	1577	677020	1	correct	tone	incorrect	tone	4750	677743
18	425_675	682526	1200	pfeil_hoch	683743	730	684474	2	correct	tone	correct	tone	2500	686042
18	500_750	688576	1200	pfeil_hoch	689792	534	690327	2	correct	tone	correct	tone	7000	692092
18	550_800	699125	1200	pfeil_runter	700342	1490	701832	1	correct	tone	incorrect	tone	16250	718924
19	675_425	720457	1200	pfeil_hoch	721674	1648	723322	1	correct	tone	incorrect	tone	2500	723973
19	525_775	726507	1200	pfeil_hoch	727723	660	728384	2	correct	tone	correct	tone	4750	730023
19	325_575	734806	1200	pfeil_hoch	736023	444	736467	2	correct	tone	correct	tone	7000	738323
19	775_525	745356	1200	pfeil_hoch	746572	915	747488	1	correct	tone	incorrect	tone	3750	752655
20	sellerie_correct	754222	970	sellerie	755205	1815	757021	2	correct	FPM	correct	gemuese	4750	757738
20	birne_word	762538	1160	blaubeere	763704	801	764506	1	correct	WPM	incorrect	frucht	2500	766054
20	schiff_word	768621	1040	traktor	769671	1003	770674	1	correct	WPM	incorrect	fortbewegungsmittel	7000	772137
20	jeans_incorrect	779170	1300	jeans	780487	1011	781498	1	correct	FPM	incorrect	kleidungsstueck	3750	786470
21	harke_incorrect	788020	1290	harke	789320	909	790229	1	correct	FPM	incorrect	werkzeug	7000	791536
21	kohlrabi_correct	798586	1250	kohlrabi	799852	1782	801635	2	correct	FPM	correct	gemuese	2500	802102
21	kanu_word	804669	1260	kanu	805935	788	806724	2	correct	WPM	correct	fortbewegungsmittel	4750	808185
21	faehre_correct	813002	1320	faehre	814335	1597	815932	2	correct	FPM	correct	fortbewegungsmittel	16250	832800
22	schaukelstuhl_incorrect	834334	940	schaukelstuhl	835284	1312	836596	1	correct	FPM	incorrect	moebelstueck	7000	837850
22	mantel_word	844916	1020	handschuh	845950	874	846824	1	correct	WPM	incorrect	kleidungsstueck	4750	848433
22	fledermaus_word	853233	1580	fledermaus	854816	1016	855832	2	correct	WPM	correct	saeugetier	2500	856749
22	banane_incorrect	859282	890	banane	860182	740	860922	1	correct	FPM	incorrect	frucht	0	860182
