MDN_APH

Participant:	20
Date: 07/15/2021 13:51:22
Session: 3
Run: 1
Buttons: 2/1

block_number	stimulus_audio	time_audio	length_audio	stimulus_picture	time_picture	response_time	relative_response_time	button_response	accuracy	condition	correctness	category	ISI	time_ISI
1	725_475	20052	1200	pfeil_hoch	21265	827	22092	2	correct	tone	incorrect	tone	4750	23565
1	600_350	28348	1200	pfeil_hoch	29564	725	30290	1	incorrect	tone	incorrect	tone	7000	31864
1	550_300	38897	1200	pfeil_runter	40114	394	40508	2	incorrect	tone	correct	tone	2500	42414
1	350_600	44947	1200	pfeil_hoch	46163	433	46597	1	correct	tone	correct	tone	3750	52246
2	lama_word	53813	1240	baer	55063	578	55641	2	correct	WPM	incorrect	saeugetier	7000	57329
2	eichhoernchen_word	64362	1430	eichhoernchen	65796	585	66381	1	correct	WPM	correct	saeugetier	4750	67879
2	schaukelstuhl_word	72695	1430	schaukelstuhl	74128	469	74598	1	correct	WPM	correct	moebelstueck	2500	76212
2	saege_correct	78778	1030	saege	79811	478	80290	2	incorrect	FPM	correct	werkzeug	16250	98577
3	baer_word	100110	1130	lama	101243	522	101766	2	correct	WPM	incorrect	saeugetier	4750	103627
3	bohrmaschine_word	108410	1530	bohrmaschine	109943	544	110488	1	correct	WPM	correct	werkzeug	2500	111926
3	gans_word	114493	1110	gans	115609	677	116287	1	correct	WPM	correct	vogel	7000	118009
3	kuerbis_word	125042	1300	radieschen	126359	645	127004	2	correct	WPM	incorrect	gemuese	3750	132342
4	325_575	133875	1200	pfeil_runter	135091	476	135568	2	correct	tone	incorrect	tone	4750	137391
4	775_525	142174	1200	pfeil_runter	143391	746	144192	1	correct	tone	correct	tone	7000	145691
4	800_550	152724	1200	pfeil_hoch	153940	642	154583	2	correct	tone	incorrect	tone	2500	156240
4	625_375	158773	1200	pfeil_hoch	159990	504	160495	2	correct	tone	incorrect	tone	16250	178572
5	paprika_correct	180122	1000	paprika	181139	701	181840	1	correct	FPM	correct	gemuese	7000	183638
5	kamel_incorrect	190705	1240	kamel	191955	529	192484	2	correct	FPM	incorrect	saeugetier	2500	194221
5	drehstuhl_correct	196771	940	drehstuhl	197721	689	198410	1	correct	FPM	correct	moebelstueck	4750	200287
5	seehund_correct	205087	1210	seehund	206304	689	206993	1	correct	FPM	correct	saeugetier	16250	224886
6	spatz_word	226419	1150	geier	227586	652	228239	2	correct	WPM	incorrect	vogel	7000	229936
6	radieschen_word	236985	1370	kuerbis	238368	613	238982	2	correct	WPM	incorrect	gemuese	2500	240502
6	maurerkelle_correct	243068	870	maurerkelle	243951	755	244707	2	incorrect	FPM	correct	werkzeug	4750	246585
6	fledermaus_correct	251384	1000	fledermaus	252401	660	253062	1	correct	FPM	correct	saeugetier	3750	258684
7	650_400	260217	1200	pfeil_runter	261434	411	261845	1	correct	tone	correct	tone	2500	263734
7	750_500	266267	1200	pfeil_runter	267483	411	267895	1	correct	tone	correct	tone	7000	269783
7	375_625	276816	1200	pfeil_hoch	278033	476	278510	1	correct	tone	correct	tone	4750	280333
7	500_750	285116	1200	pfeil_runter	286332	471	286804	2	correct	tone	incorrect	tone	3750	292415
8	550_800	293949	1200	pfeil_hoch	295165	334	295499	1	correct	tone	correct	tone	2500	297465
8	675_425	299998	1200	pfeil_runter	301215	1076	302291	2	incorrect	tone	correct	tone	4750	303515
8	825_575	308298	1200	pfeil_hoch	309514	579	310094	2	correct	tone	incorrect	tone	7000	311814
8	450_700	318847	1200	pfeil_hoch	320064	347	320411	1	correct	tone	correct	tone	3750	326146
9	taxi_word	327680	1230	schlitten	328913	486	329399	2	correct	WPM	incorrect	fortbewegungsmittel	7000	331196
9	sichel_incorrect	338246	1170	sichel	339429	527	339956	2	correct	FPM	incorrect	werkzeug	2500	341762
9	ziege_word	344329	1310	ziege	345645	693	346339	1	correct	WPM	correct	saeugetier	4750	347845
9	tiger_incorrect	352628	1410	tiger	354045	801	354847	2	correct	FPM	incorrect	saeugetier	3750	359928
10	adler_correct	361494	940	adler	362444	714	363159	2	incorrect	FPM	correct	vogel	2500	365011
10	schleifpapier_word	367561	1400	schraubenzieher	368977	513	369490	2	correct	WPM	incorrect	werkzeug	7000	371077
10	hocker_incorrect	378110	980	hocker	379093	560	379654	1	incorrect	FPM	incorrect	moebelstueck	4750	381626
10	feile_word	386426	1220	feile	387659	533	388193	1	correct	WPM	correct	werkzeug	16250	406225
11	moewe_incorrect	407775	1190	moewe	408975	694	409670	2	correct	FPM	incorrect	vogel	2500	411291
11	pullover_incorrect	413825	1030	pullover	414858	840	415698	2	correct	FPM	incorrect	kleidungsstueck	7000	417341
11	blaubeere_incorrect	424374	1310	blaubeere	425690	918	426609	2	correct	FPM	incorrect	frucht	4750	427890
11	pinguin_word	432673	1200	pinguin	433890	483	434374	2	incorrect	WPM	correct	vogel	3750	439973
12	575_325	441506	1200	pfeil_runter	442723	557	443281	1	correct	tone	correct	tone	2500	445023
12	300_550	447556	1200	pfeil_runter	448772	505	449278	2	correct	tone	incorrect	tone	7000	451072
12	525_775	458105	1200	pfeil_runter	459322	671	459994	2	correct	tone	incorrect	tone	4750	461622
12	700_450	466405	1200	pfeil_hoch	467621	473	468094	2	correct	tone	incorrect	tone	3750	473704
13	tisch_word	475238	1040	tisch	476287	468	476756	1	correct	WPM	correct	moebelstueck	4750	478754
13	sessel_incorrect	483570	1040	sessel	484620	561	485182	2	correct	FPM	incorrect	moebelstueck	7000	487087
13	mantel_incorrect	494136	920	mantel	495070	507	495577	2	correct	FPM	incorrect	kleidungsstueck	2500	497653
13	bluse_word	500186	1340	hose	501536	531	502068	2	correct	WPM	incorrect	kleidungsstueck	16250	519985
14	brokkoli_incorrect	521518	1250	brokkoli	522785	617	523402	2	correct	FPM	incorrect	gemuese	2500	525034
14	kiwi_correct	527601	900	kiwi	528518	389	528907	2	incorrect	FPM	correct	frucht	4750	531117
14	zug_word	535900	960	zug	536867	435	537303	1	correct	WPM	correct	fortbewegungsmittel	7000	539417
14	hose_word	546483	1240	bluse	547733	777	548511	2	correct	WPM	incorrect	kleidungsstueck	3750	553783
15	jeans_word	555333	1280	jeans	556616	489	557105	1	correct	WPM	correct	kleidungsstueck	7000	558849
15	ananas_word	565882	1320	dattel	567215	767	567982	2	correct	WPM	incorrect	frucht	4750	569398
15	schal_word	574182	1040	schal	575231	444	575675	2	incorrect	WPM	correct	kleidungsstueck	2500	577698
15	mais_word	580264	860	mais	581131	739	581871	1	correct	WPM	correct	gemuese	16250	600063
16	zitrone_correct	601613	890	zitrone	602513	732	603246	1	correct	FPM	correct	frucht	7000	605130
16	kommode_word	612179	1410	bank	613596	493	614090	2	correct	WPM	incorrect	moebelstueck	4750	615696
16	dattel_word	620495	1170	ananas	621679	474	622153	2	correct	WPM	incorrect	frucht	2500	624012
16	hemd_correct	626578	1360	hemd	627945	566	628512	1	correct	FPM	correct	kleidungsstueck	3750	633878
17	575_825	635411	1200	pfeil_hoch	636628	378	637006	1	correct	tone	correct	tone	4750	638927
17	425_675	643711	1200	pfeil_runter	644927	475	645402	2	correct	tone	incorrect	tone	2500	647227
17	400_650	649760	1200	pfeil_runter	650977	482	651460	2	correct	tone	incorrect	tone	7000	653277
17	475_725	660310	1200	pfeil_hoch	661526	435	661962	1	correct	tone	correct	tone	3750	667609
18	hobel_incorrect	669142	1170	hobel	670326	581	670908	2	correct	FPM	incorrect	werkzeug	4750	672659
18	sellerie_incorrect	677459	1080	sellerie	678542	856	679398	2	correct	FPM	incorrect	gemuese	2500	680975
18	geier_word	683542	1120	spatz	684675	681	685356	2	correct	WPM	incorrect	vogel	7000	687058
18	hubschrauber_word	694108	1300	hubschrauber	695424	542	695967	1	correct	WPM	correct	fortbewegungsmittel	16250	713906
19	schlitten_word	715456	1130	taxi	716589	516	717106	2	correct	WPM	incorrect	fortbewegungsmittel	2500	718973
19	kirsche_word	721506	1190	kirsche	722706	498	723205	1	correct	WPM	correct	frucht	4750	725022
19	faehre_incorrect	729839	940	faehre	730789	461	731250	2	correct	FPM	incorrect	fortbewegungsmittel	7000	733355
19	spargel_correct	740421	1440	spargel	741871	581	742453	1	correct	FPM	correct	gemuese	3750	747721
20	kokosnuss_incorrect	749271	1000	kokosnuss	750287	620	750908	2	correct	FPM	incorrect	frucht	4750	752787
20	bank_word	757570	1160	kommode	758737	616	759353	2	correct	WPM	incorrect	moebelstueck	2500	761087
20	schraubenzieher_word	763620	1420	schleifpapier	765053	501	765554	2	correct	WPM	incorrect	werkzeug	7000	767136
20	socke_correct	774186	1300	socke	775503	887	776390	1	correct	FPM	correct	kleidungsstueck	3750	781486
21	kanu_correct	783035	1180	kanu	784219	740	784960	1	correct	FPM	correct	fortbewegungsmittel	7000	786552
21	flugzeug_correct	793585	930	flugzeug	794518	579	795098	1	correct	FPM	correct	fortbewegungsmittel	2500	797101
21	banane_word	799651	1320	banane	800984	616	801601	1	correct	WPM	correct	frucht	4750	803168
21	traktor_incorrect	807951	1150	traktor	809117	681	809799	1	incorrect	FPM	incorrect	fortbewegungsmittel	16250	827749
22	moehre_word	829283	1170	moehre	830466	685	831151	1	correct	WPM	correct	gemuese	7000	832799
22	sofa_correct	839849	1110	sofa	840965	494	841460	1	correct	FPM	correct	moebelstueck	4750	843365
22	ente_incorrect	848148	1450	ente	849615	580	850195	2	correct	FPM	incorrect	vogel	2500	851665
22	elster_correct	854215	950	elster	855181	605	855786	2	incorrect	FPM	correct	vogel	0	855181
