MDN_APH

Participant:	5
Date: 03/06/2020 11:19:18
Session: 3
Run: 2
Buttons: 1/2

block_number	stimulus_audio	time_audio	length_audio	stimulus_picture	time_picture	response_time	relative_response_time	button_response	accuracy	condition	correctness	category	ISI	time_ISI
1	hubschrauber_correct	15806	1270	hubschrauber	17073	771	17844	2	correct	FPM	correct	fortbewegungsmittel	4750	19323
1	ananas_incorrect	24126	1280	ananas	25409	1083	26492	1	correct	FPM	incorrect	frucht	7000	27626
1	ananas_word	34663	1320	dattel	35979	700	36680	1	correct	WPM	incorrect	frucht	2500	38163
1	mais_correct	40714	930	mais	41630	733	42364	2	correct	FPM	correct	gemuese	3750	48000
2	600_350	49535	1200	pfeil_hoch	50735	726	51461	1	correct	tone	incorrect	tone	4750	53035
2	350_600	57821	1200	pfeil_hoch	59021	1097	60118	2	correct	tone	correct	tone	2500	61322
2	550_300	63856	1200	pfeil_runter	65056	913	65970	2	correct	tone	correct	tone	7000	67356
2	775_525	74393	1200	pfeil_runter	75593	623	76217	2	correct	tone	correct	tone	16250	94164
3	meissel_incorrect	95718	1150	meissel	96868	778	97646	1	correct	FPM	incorrect	werkzeug	4750	99235
3	drehstuhl_word	104021	1390	drehstuhl	105402	679	106082	2	correct	WPM	correct	moebelstueck	2500	107521
3	taxi_incorrect	110089	1170	taxi	111256	1060	112316	1	correct	FPM	incorrect	fortbewegungsmittel	7000	113589
3	moehre_word	120626	1170	moehre	121793	1018	122811	2	correct	WPM	correct	gemuese	3750	127912
4	spatz_incorrect	129463	1380	spatz	130830	1169	131999	1	correct	FPM	incorrect	vogel	2500	132980
4	schlafanzug_incorrect	135531	1320	schlafanzug	136865	1022	137887	1	correct	FPM	incorrect	kleidungsstueck	4750	139031
4	taxi_word	143818	1230	schlitten	145051	694	145745	1	correct	WPM	incorrect	fortbewegungsmittel	7000	147335
4	saege_correct	154388	1030	saege	155422	842	156264	2	correct	FPM	correct	werkzeug	3750	161674
5	575_325	163208	1200	pfeil_runter	164408	898	165306	2	correct	tone	correct	tone	7000	166726
5	525_775	173762	1200	pfeil_runter	174962	700	175663	1	correct	tone	incorrect	tone	2500	177263
5	325_575	179797	1200	pfeil_runter	180997	606	181603	1	correct	tone	incorrect	tone	4750	183298
5	700_450	188084	1200	pfeil_hoch	189284	834	190118	1	correct	tone	incorrect	tone	16250	207871
6	birne_word	209408	1160	blaubeere	210556	831	211388	1	correct	WPM	incorrect	frucht	4750	212909
6	fledermaus_word	217694	1580	fledermaus	219278	622	219901	2	correct	WPM	correct	saeugetier	7000	221212
6	schaukelstuhl_correct	228265	1030	schaukelstuhl	229298	1018	230317	1	incorrect	FPM	correct	moebelstueck	2500	231765
6	banane_correct	234316	970	banane	235283	835	236119	2	correct	FPM	correct	frucht	16250	254086
7	eichhoernchen_word	255624	1430	eichhoernchen	257058	636	257694	2	correct	WPM	correct	saeugetier	2500	259125
7	feile_correct	261676	820	feile	262493	1355	263849	2	correct	FPM	correct	werkzeug	7000	265194
7	flugzeug_correct	272247	930	flugzeug	273162	838	274000	2	correct	FPM	correct	fortbewegungsmittel	4750	275764
7	bank_word	280567	1160	kommode	281733	760	282493	1	correct	WPM	incorrect	moebelstueck	16250	300337
8	maurerkelle_word	301874	1390	maurerkelle	303257	741	303999	2	correct	WPM	correct	werkzeug	7000	305375
8	bluse_word	312411	1340	hose	313761	620	314382	1	correct	WPM	incorrect	kleidungsstueck	2500	315912
8	kanu_word	318446	1260	kanu	319713	862	320576	2	correct	WPM	correct	fortbewegungsmittel	4750	321946
8	bank_incorrect	326750	1210	bank	327966	812	328779	1	correct	FPM	incorrect	moebelstueck	3750	334035
9	schal_word	335569	1040	schal	336619	688	337307	2	correct	WPM	correct	kleidungsstueck	7000	339069
9	kohlrabi_incorrect	346123	1110	kohlrabi	347240	1140	348380	1	correct	FPM	incorrect	gemuese	4750	349641
9	spatz_word	354426	1150	geier	355576	741	356317	1	correct	WPM	incorrect	vogel	2500	357927
9	pinguin_word	360461	1200	pinguin	361661	528	362189	2	correct	WPM	correct	vogel	16250	380250
10	650_400	381786	1200	pfeil_runter	382986	902	383888	2	correct	tone	correct	tone	7000	385285
10	625_375	392323	1200	pfeil_hoch	393523	695	394219	1	correct	tone	incorrect	tone	4750	395824
10	450_700	400609	1200	pfeil_hoch	401809	607	402417	2	correct	tone	correct	tone	2500	404127
10	500_750	406661	1200	pfeil_runter	407861	813	408675	1	correct	tone	incorrect	tone	3750	413947
11	kohlrabi_word	415481	1310	brokkoli	416798	992	417790	1	correct	WPM	incorrect	gemuese	4750	418982
11	kuerbis_word	423767	1300	radieschen	425067	920	425988	1	correct	WPM	incorrect	gemuese	2500	427285
11	seehund_correct	429836	1210	seehund	431053	552	431605	2	correct	FPM	correct	saeugetier	7000	433337
11	bueffel_incorrect	440390	1220	bueffel	441606	905	442511	1	correct	FPM	incorrect	saeugetier	3750	447692
12	birne_incorrect	449243	1510	birne	450760	1323	452083	1	correct	FPM	incorrect	frucht	4750	452760
12	ziege_correct	457563	1230	ziege	458796	610	459407	2	correct	FPM	correct	saeugetier	2500	461080
12	schraubenzieher_incorrect	463631	1280	schraubenzieher	464895	611	465506	1	correct	FPM	incorrect	werkzeug	7000	467131
12	zug_word	474169	960	zug	475135	568	475704	2	correct	WPM	correct	fortbewegungsmittel	3750	481454
13	675_425	482988	1200	pfeil_runter	484188	822	485011	2	correct	tone	correct	tone	7000	486488
13	725_475	493525	1200	pfeil_hoch	494725	681	495407	1	correct	tone	incorrect	tone	2500	497043
13	425_675	499577	1200	pfeil_runter	500777	670	501448	1	correct	tone	incorrect	tone	4750	503078
13	800_550	507864	1200	pfeil_hoch	509064	641	509705	2	incorrect	tone	incorrect	tone	3750	515166
14	750_500	516700	1200	pfeil_runter	517900	964	518865	2	correct	tone	correct	tone	2500	520218
14	400_650	522752	1200	pfeil_runter	523952	662	524615	1	correct	tone	incorrect	tone	7000	526253
14	375_625	533289	1200	pfeil_hoch	534489	521	535011	2	correct	tone	correct	tone	4750	536807
14	575_825	541592	1200	pfeil_hoch	542792	418	543210	2	correct	tone	correct	tone	3750	548878
15	socke_word	550412	1220	socke	551629	590	552220	2	correct	WPM	correct	kleidungsstueck	7000	553913
15	kiwi_correct	560966	900	kiwi	561866	1244	563110	1	incorrect	FPM	correct	frucht	4750	564483
15	baer_word	569269	1130	lama	570402	674	571076	1	correct	WPM	incorrect	saeugetier	2500	572770
15	gans_correct	575321	1220	gans	576538	617	577156	2	correct	FPM	correct	vogel	3750	582623
16	zitrone_word	584158	1400	zitrone	585558	732	586290	2	correct	WPM	correct	frucht	2500	587658
16	schiff_word	590209	1040	traktor	591243	560	591804	1	correct	WPM	incorrect	fortbewegungsmittel	4750	593727
16	elster_word	598513	1330	elster	599846	373	600220	2	correct	WPM	correct	vogel	7000	602013
16	schraubenzieher_word	609066	1420	schleifpapier	610483	403	610887	1	correct	WPM	incorrect	werkzeug	3750	616368
17	hemd_correct	617920	1360	hemd	619286	590	619876	2	correct	FPM	correct	kleidungsstueck	7000	621419
17	paprika_correct	628473	1000	paprika	629473	1001	630475	2	correct	FPM	correct	gemuese	4750	631974
17	regal_word	636760	1190	hocker	637959	642	638602	1	correct	WPM	incorrect	moebelstueck	2500	640260
17	schlafanzug_word	642795	1530	pullover	644328	683	645012	1	correct	WPM	incorrect	kleidungsstueck	16250	662583
18	meissel_word	664119	1190	hobel	665319	583	665903	1	correct	WPM	incorrect	werkzeug	4750	667619
18	bueffel_word	672422	1150	tiger	673572	429	674002	1	correct	WPM	incorrect	saeugetier	7000	675940
18	kirsche_word	682976	1190	kirsche	684157	441	684598	2	correct	WPM	correct	frucht	2500	686477
18	adler_correct	689028	940	adler	689978	1628	691606	1	incorrect	FPM	correct	vogel	3750	696314
19	825_575	697848	1200	pfeil_hoch	699048	756	699804	1	correct	tone	incorrect	tone	2500	701349
19	475_725	703883	1200	pfeil_hoch	705083	918	706002	2	correct	tone	correct	tone	7000	707384
19	550_800	714420	1200	pfeil_hoch	715620	381	716002	2	correct	tone	correct	tone	4750	717920
19	300_550	722707	1200	pfeil_runter	723907	679	724586	1	correct	tone	incorrect	tone	16250	742494
20	eule_word	744031	1220	ente	745245	632	745877	1	correct	WPM	incorrect	vogel	2500	747532
20	kuerbis_incorrect	750083	1440	kuerbis	751533	1083	752617	1	correct	FPM	incorrect	gemuese	4750	753583
20	sofa_correct	758386	1110	sofa	759503	718	760221	2	correct	FPM	correct	moebelstueck	7000	761903
20	bluse_incorrect	768956	1010	bluse	769973	709	770682	1	correct	FPM	incorrect	kleidungsstueck	3750	776242
21	tisch_word	777793	1040	tisch	778826	626	779453	2	correct	WPM	correct	moebelstueck	7000	781310
21	schiff_incorrect	788363	1050	schiff	789413	1005	790419	1	correct	FPM	incorrect	fortbewegungsmittel	2500	791881
21	eule_incorrect	794432	1370	eule	795797	720	796518	1	correct	FPM	incorrect	vogel	4750	797932
21	baer_incorrect	802735	950	baer	803685	1129	804815	1	correct	FPM	incorrect	saeugetier	16250	822523
22	regal_incorrect	824076	1220	regal	825293	829	826122	1	correct	FPM	incorrect	moebelstueck	2500	827593
22	bohrmaschine_word	830128	1530	bohrmaschine	831662	658	832320	2	correct	WPM	correct	werkzeug	7000	833629
22	spargel_word	840665	1100	spargel	841763	656	842419	2	correct	WPM	correct	gemuese	4750	844183
22	jeans_correct	848985	1590	jeans	850568	642	851211	2	correct	FPM	correct	kleidungsstueck	0	850568
