MDN_APH

Participant:	30
Date: 10/12/2021 08:43:16
Session: 3
Run: 1
Buttons: 2/1

block_number	stimulus_audio	time_audio	length_audio	stimulus_picture	time_picture	response_time	relative_response_time	button_response	accuracy	condition	correctness	category	ISI	time_ISI
1	wellensittich_correct	22233	1110	wellensittich	23348	723	24072	1	correct	FPM	correct	vogel	4750	25748
1	birne_incorrect	30564	1510	birne	32081	909	32991	2	correct	FPM	incorrect	frucht	7000	34081
1	sessel_word	41164	1130	schrank	42297	587	42885	2	correct	WPM	incorrect	moebelstueck	2500	44680
1	eichhoernchen_correct	47247	990	eichhoernchen	48247	926	49173	2	incorrect	FPM	correct	saeugetier	3750	54546
2	kohlrabi_incorrect	56113	1110	kohlrabi	57229	918	58148	2	correct	FPM	incorrect	gemuese	7000	59629
2	regal_incorrect	66696	1220	regal	67929	741	68671	2	correct	FPM	incorrect	moebelstueck	2500	70212
2	weisskohl_word	72778	1160	sellerie	73945	723	74669	2	correct	WPM	incorrect	gemuese	4750	76295
2	tisch_correct	81128	1220	tisch	82361	629	82991	1	correct	FPM	correct	moebelstueck	16250	100943
3	650_400	102510	1200	pfeil_runter	103726	967	104694	1	correct	tone	correct	tone	2500	106026
3	800_550	108576	1200	pfeil_hoch	109793	875	110668	2	correct	tone	incorrect	tone	4750	112093
3	700_450	116876	1200	pfeil_hoch	118092	1357	119450	2	correct	tone	incorrect	tone	7000	120392
3	500_750	127442	1200	pfeil_runter	128658	728	129387	2	correct	tone	incorrect	tone	3750	134741
4	kutsche_word	136325	1210	faehre	137541	836	138377	2	correct	WPM	incorrect	fortbewegungsmittel	4750	139841
4	fuchs_word	144657	1100	fuchs	145774	668	146442	1	correct	WPM	correct	saeugetier	7000	148174
4	kiwi_word	155223	1190	kiwi	156423	667	157090	1	correct	WPM	correct	frucht	2500	158740
4	schlafanzug_incorrect	161306	1320	schlafanzug	162640	809	163449	2	correct	FPM	incorrect	kleidungsstueck	16250	181105
5	schlitten_correct	182655	1170	schlitten	183838	1054	184893	1	correct	FPM	correct	fortbewegungsmittel	2500	186171
5	sichel_word	188721	1210	walze	189938	718	190656	2	correct	WPM	incorrect	werkzeug	7000	192238
5	geier_incorrect	199304	1460	geier	200771	815	201586	2	correct	FPM	incorrect	vogel	4750	202820
5	pinguin_correct	207637	1210	pinguin	208853	831	209685	1	correct	FPM	correct	vogel	16250	227436
6	moewe_word	229002	1240	meise	230252	738	230991	2	correct	WPM	incorrect	vogel	7000	232519
6	dattel_incorrect	239585	1310	dattel	240901	1080	241982	2	correct	FPM	incorrect	frucht	2500	243101
6	truhe_word	245651	1190	truhe	246851	578	247429	1	correct	WPM	correct	moebelstueck	4750	249168
6	meise_word	253967	1210	moewe	255184	738	255922	2	correct	WPM	incorrect	vogel	3750	261267
7	550_800	262817	1200	pfeil_hoch	264033	828	264861	1	correct	tone	correct	tone	7000	266333
7	725_475	273383	1200	pfeil_hoch	274599	1085	275685	2	correct	tone	incorrect	tone	4750	276899
7	325_575	281699	1200	pfeil_runter	282915	822	283738	2	correct	tone	incorrect	tone	2500	285215
7	350_600	287749	1200	pfeil_hoch	288965	422	289388	1	correct	tone	correct	tone	3750	295048
8	bueffel_incorrect	296615	1220	bueffel	297848	946	298794	2	correct	FPM	incorrect	saeugetier	7000	300131
8	eule_incorrect	307197	1370	eule	308581	1100	309681	2	correct	FPM	incorrect	vogel	2500	310714
8	schal_correct	313264	1080	schal	314347	528	314875	1	correct	FPM	correct	kleidungsstueck	4750	316780
8	flugzeug_word	321596	1410	flugzeug	323013	649	323663	1	correct	WPM	correct	fortbewegungsmittel	3750	328896
9	775_525	330429	1200	pfeil_runter	331646	1247	332893	2	incorrect	tone	correct	tone	4750	333946
9	550_300	338745	1200	pfeil_runter	339962	832	340794	1	correct	tone	correct	tone	2500	342262
9	450_700	344812	1200	pfeil_hoch	346028	667	346695	1	correct	tone	correct	tone	7000	348328
9	825_575	355361	1200	pfeil_hoch	356578	1854	358432	2	correct	tone	incorrect	tone	16250	375160
10	adler_word	376710	1210	adler	377926	670	378596	1	correct	WPM	correct	vogel	7000	380226
10	schiff_incorrect	387276	1050	schiff	388342	749	389091	2	correct	FPM	incorrect	fortbewegungsmittel	4750	390792
10	hut_correct	395592	1290	hut	396892	559	397451	1	correct	FPM	correct	kleidungsstueck	2500	399108
10	wiege_correct	401675	1210	wiege	402891	945	403837	2	incorrect	FPM	correct	moebelstueck	3750	408974
11	lama_incorrect	410541	940	lama	411491	1192	412683	2	correct	FPM	incorrect	saeugetier	7000	414057
11	paprika_word	421140	1330	paprika	422474	519	422993	1	correct	WPM	correct	gemuese	4750	424657
11	axt_word	429456	1140	axt	430606	584	431191	1	correct	WPM	correct	werkzeug	2500	432973
11	sofa_word	435539	1200	sofa	436756	830	437587	1	correct	WPM	correct	moebelstueck	16250	455338
12	400_650	456871	1200	pfeil_runter	458088	765	458853	2	correct	tone	incorrect	tone	4750	460388
12	575_825	465171	1200	pfeil_hoch	466387	772	467160	1	correct	tone	correct	tone	7000	468687
12	375_625	475720	1200	pfeil_hoch	476937	516	477454	1	correct	tone	correct	tone	2500	479237
12	625_375	481770	1200	pfeil_hoch	482986	798	483785	2	correct	tone	incorrect	tone	3750	489069
13	schleifpapier_incorrect	490636	1130	schleifpapier	491769	801	492571	2	correct	FPM	incorrect	werkzeug	4750	494152
13	faehre_word	498969	1240	kutsche	500219	675	500894	2	correct	WPM	incorrect	fortbewegungsmittel	2500	502485
13	sellerie_word	505052	1110	weisskohl	506168	725	506894	2	correct	WPM	incorrect	gemuese	7000	508568
13	aprikose_correct	515618	1670	aprikose	517301	860	518162	1	correct	FPM	correct	frucht	16250	535417
14	kamel_word	536983	1190	biber	538183	711	538894	2	correct	WPM	incorrect	saeugetier	7000	540500
14	kirsche_correct	547549	1250	kirsche	548816	771	549587	1	correct	FPM	correct	frucht	4750	551066
14	kokosnuss_word	555899	1510	weintraube	557415	833	558249	2	correct	WPM	incorrect	frucht	2500	559415
14	reiher_word	561965	1180	reiher	563148	807	563956	1	correct	WPM	correct	vogel	3750	569264
15	schrank_word	570831	1150	sessel	571998	599	572597	2	correct	WPM	incorrect	moebelstueck	2500	574347
15	meissel_incorrect	576914	1150	meissel	578081	1110	579191	2	correct	FPM	incorrect	werkzeug	7000	580430
15	avocado_word	587497	1440	avocado	588947	739	589686	1	correct	WPM	correct	gemuese	4750	591013
15	wal_correct	595830	1360	wal	597196	748	597944	2	incorrect	FPM	correct	saeugetier	16250	615628
16	hemd_word	617195	1110	hemd	618311	582	618894	1	correct	WPM	correct	kleidungsstueck	4750	620711
16	rollschuh_word	625528	1150	rollschuh	626694	596	627290	1	correct	WPM	correct	fortbewegungsmittel	2500	629044
16	hose_incorrect	631594	1020	hose	632627	732	633360	2	correct	FPM	incorrect	kleidungsstueck	7000	635110
16	schlitten_incorrect	642160	1330	schlitten	643493	732	644225	2	correct	FPM	incorrect	fortbewegungsmittel	3750	649459
17	weintraube_word	651026	1460	kokosnuss	652493	666	653159	2	correct	WPM	incorrect	frucht	4750	654543
17	bohrmaschine_correct	659342	1180	bohrmaschine	660525	925	661451	1	correct	FPM	correct	werkzeug	2500	662859
17	fahrrad_correct	665409	1070	fahrrad	666492	869	667362	1	correct	FPM	correct	fortbewegungsmittel	7000	668925
17	mantel_word	675975	1020	handschuh	677008	677	677685	2	correct	WPM	incorrect	kleidungsstueck	3750	683274
18	biber_word	684841	1130	kamel	685974	675	686650	2	correct	WPM	incorrect	saeugetier	2500	688357
18	kommode_incorrect	690924	1240	kommode	692174	919	693093	2	correct	FPM	incorrect	moebelstueck	4750	694440
18	kleid_word	699240	1210	kleid	700456	604	701061	1	correct	WPM	correct	kleidungsstueck	7000	702756
18	radieschen_incorrect	709806	1350	radieschen	711172	1169	712342	2	correct	FPM	incorrect	gemuese	3750	717105
19	750_500	718639	1200	pfeil_runter	719855	841	720697	1	correct	tone	correct	tone	2500	722155
19	300_550	724688	1200	pfeil_runter	725905	773	726678	2	correct	tone	incorrect	tone	7000	728205
19	575_325	735238	1200	pfeil_runter	736454	935	737390	1	correct	tone	correct	tone	4750	738754
19	600_350	743537	1200	pfeil_hoch	744754	1032	745786	2	correct	tone	incorrect	tone	3750	750837
20	handschuh_word	752387	1180	mantel	753570	697	754267	2	correct	WPM	incorrect	kleidungsstueck	7000	755903
20	seehund_word	762969	1380	seehund	764352	628	764981	1	correct	WPM	correct	saeugetier	2500	766486
20	walze_word	769036	1300	sichel	770352	783	771136	2	correct	WPM	incorrect	werkzeug	4750	772552
20	saege_word	777368	1220	saege	778602	491	779093	1	correct	WPM	correct	werkzeug	3750	784668
21	zwiebel_correct	786218	940	zwiebel	787168	905	788074	2	incorrect	FPM	correct	gemuese	2500	789734
21	moehre_correct	792284	1130	moehre	793417	853	794270	1	correct	FPM	correct	gemuese	7000	795800
21	harke_correct	802867	1170	harke	804050	944	804994	1	correct	FPM	correct	werkzeug	4750	806383
21	orange_word	811183	1230	orange	812416	630	813046	1	correct	WPM	correct	frucht	16250	830982
22	675_425	832532	1200	pfeil_runter	833748	751	834499	1	correct	tone	correct	tone	2500	836048
22	425_675	838581	1200	pfeil_runter	839798	701	840499	2	correct	tone	incorrect	tone	4750	842098
22	475_725	846881	1200	pfeil_hoch	848097	598	848695	1	correct	tone	correct	tone	7000	850397
22	525_775	857430	1200	pfeil_runter	858647	685	859332	2	correct	tone	incorrect	tone	0	858647
