MDN_APH

Participant:	7
Date: 03/29/2021 14:03:13
Session: 1
Run: 1
Buttons: 1/2

block_number	stimulus_audio	time_audio	length_audio	stimulus_picture	time_picture	response_time	relative_response_time	button_response	accuracy	condition	correctness	category	ISI	time_ISI
1	blaubeere_word	23933	1450	birne	25398	557	25955	1	correct	WPM	incorrect	frucht	7000	27448
1	handschuh_incorrect	34498	1130	handschuh	35631	523	36154	1	correct	FPM	incorrect	kleidungsstueck	2500	38014
1	harke_word	40547	1240	harke	41797	725	42522	2	correct	WPM	correct	werkzeug	4750	44064
1	truhe_correct	48897	1200	truhe	50113	1695	51809	2	correct	FPM	correct	moebelstueck	16250	68695
2	fuchs_correct	70262	1060	fuchs	71329	627	71956	2	correct	FPM	correct	saeugetier	2500	73778
2	brokkoli_incorrect	76328	1250	brokkoli	77595	772	78367	1	correct	FPM	incorrect	gemuese	7000	79845
2	fahrrad_word	86894	1350	fahrrad	88261	558	89589	2	correct	WPM	correct	fortbewegungsmittel	4750	90411
2	hemd_word	95211	1110	hemd	96327	985	97313	2	correct	WPM	correct	kleidungsstueck	3750	102510
3	hobel_word	104060	1190	meissel	105260	648	105908	1	correct	WPM	incorrect	werkzeug	7000	107576
3	ente_incorrect	114626	1450	ente	116093	715	116808	1	correct	FPM	incorrect	vogel	2500	118142
3	adler_word	120709	1210	adler	121926	1149	123075	2	correct	WPM	correct	vogel	4750	124225
3	weisskohl_word	129042	1160	sellerie	130208	760	130969	1	correct	WPM	incorrect	gemuese	16250	148857
4	575_325	150407	1200	pfeil_hoch	151624	700	152325	1	correct	tone	incorrect	tone	4750	153924
4	675_425	158707	1200	pfeil_hoch	159923	500	160424	1	correct	tone	incorrect	tone	7000	162223
4	625_375	169273	1200	pfeil_runter	170489	806	171296	2	correct	tone	correct	tone	2500	172789
4	550_800	175322	1200	pfeil_runter	176539	676	177216	1	correct	tone	incorrect	tone	3750	182622
5	axt_correct	184172	1290	axt	185472	1348	186820	2	correct	FPM	correct	werkzeug	4750	187688
5	wellensittich_word	192505	1510	wellensittich	194021	798	194820	2	correct	WPM	correct	vogel	2500	196021
5	walze_incorrect	198588	1230	walze	199821	654	200475	1	correct	FPM	incorrect	werkzeug	7000	202104
5	wal_word	209170	1100	wal	210287	1028	211315	2	correct	WPM	correct	saeugetier	16250	228969
6	avocado_correct	230519	1290	avocado	231819	1084	232904	2	correct	FPM	correct	gemuese	2500	234035
6	tisch_correct	236602	1220	tisch	237835	849	238685	2	correct	FPM	correct	moebelstueck	4750	240118
6	aprikose_word	244935	1440	aprikose	246385	1128	247513	2	correct	WPM	correct	frucht	7000	248451
6	hocker_word	255501	1110	regal	256617	598	257216	1	correct	WPM	incorrect	moebelstueck	3750	262800
7	325_575	264350	1200	pfeil_hoch	265567	706	266274	2	correct	tone	correct	tone	2500	267867
7	825_575	270400	1200	pfeil_runter	271617	708	272325	2	correct	tone	correct	tone	4750	273916
7	375_625	278700	1200	pfeil_runter	279916	658	280575	1	correct	tone	incorrect	tone	7000	282216
7	350_600	289249	1200	pfeil_runter	290465	652	291117	1	correct	tone	incorrect	tone	3750	296548
8	schrank_word	298115	1150	sessel	299282	578	299860	1	correct	WPM	incorrect	moebelstueck	2500	301631
8	hocker_incorrect	304181	980	hocker	305165	745	305910	1	correct	FPM	incorrect	moebelstueck	7000	307698
8	paprika_word	314747	1330	paprika	316081	641	316722	2	correct	WPM	correct	gemuese	4750	318264
8	kutsche_word	323063	1210	faehre	324280	639	324920	1	correct	WPM	incorrect	fortbewegungsmittel	16250	342862
9	425_675	344396	1200	pfeil_hoch	345612	582	346194	2	correct	tone	correct	tone	7000	347912
9	725_475	354945	1200	pfeil_runter	356161	721	356883	2	correct	tone	correct	tone	4750	358461
9	500_750	363244	1200	pfeil_hoch	364461	808	365270	2	correct	tone	correct	tone	2500	366761
9	575_825	369294	1200	pfeil_runter	370511	607	371118	1	correct	tone	incorrect	tone	3750	376594
10	600_350	378127	1200	pfeil_runter	379343	764	380108	2	correct	tone	correct	tone	4750	381643
10	650_400	386426	1200	pfeil_hoch	387643	636	388279	1	correct	tone	incorrect	tone	2500	389943
10	400_650	392476	1200	pfeil_hoch	393693	624	394317	2	correct	tone	correct	tone	7000	395992
10	775_525	403025	1200	pfeil_hoch	404242	556	404799	1	correct	tone	incorrect	tone	16250	422824
11	blaubeere_incorrect	424391	1310	blaubeere	425707	1757	427465	2	incorrect	FPM	incorrect	frucht	4750	427907
11	saege_word	432707	1220	saege	433940	665	434606	2	correct	WPM	correct	werkzeug	7000	436223
11	weintraube_incorrect	443290	980	weintraube	444273	700	444974	1	correct	FPM	incorrect	frucht	2500	446806
11	reiher_correct	449356	1020	reiher	450389	1125	451514	2	correct	FPM	correct	vogel	3750	456655
12	hut_word	458205	1120	hut	459339	555	459894	2	correct	WPM	correct	kleidungsstueck	7000	461722
12	weisskohl_incorrect	468771	970	weisskohl	469755	868	470624	1	correct	FPM	incorrect	gemuese	4750	472288
12	traktor_incorrect	477104	1150	traktor	478271	904	479175	1	correct	FPM	incorrect	fortbewegungsmittel	2500	480621
12	traktor_word	483187	1320	schiff	484520	488	485009	1	correct	WPM	incorrect	fortbewegungsmittel	3750	490487
13	brokkoli_word	492037	1100	kohlrabi	493153	644	493798	1	correct	WPM	incorrect	gemuese	7000	495553
13	rollschuh_correct	502603	990	rollschuh	503603	823	504426	2	correct	FPM	correct	fortbewegungsmittel	2500	506119
13	kirsche_correct	508669	1250	kirsche	509936	960	510896	2	correct	FPM	correct	frucht	4750	512185
13	pullover_word	516985	1290	schlafanzug	518285	734	519020	1	correct	WPM	incorrect	kleidungsstueck	16250	536784
14	pinguin_correct	538334	1210	pinguin	539550	948	540499	2	correct	FPM	correct	vogel	7000	541850
14	pullover_incorrect	548900	1030	pullover	549933	766	550700	1	correct	FPM	incorrect	kleidungsstueck	2500	552416
14	schrank_incorrect	554966	990	schrank	555966	832	556799	1	correct	FPM	incorrect	moebelstueck	4750	558483
14	sofa_word	563299	1200	sofa	564516	603	565119	2	correct	WPM	correct	moebelstueck	3750	570599
15	700_450	572132	1200	pfeil_runter	573348	538	573887	2	correct	tone	correct	tone	4750	575648
15	525_775	580448	1200	pfeil_hoch	581665	563	582228	2	correct	tone	correct	tone	2500	583964
15	475_725	586498	1200	pfeil_runter	587714	712	588426	1	correct	tone	incorrect	tone	7000	590014
15	800_550	597047	1200	pfeil_runter	598264	643	598907	2	correct	tone	correct	tone	3750	604346
16	biber_incorrect	605913	960	biber	606880	692	607572	1	correct	FPM	incorrect	saeugetier	4750	609430
16	orange_correct	614229	1300	orange	615546	1219	616766	2	correct	FPM	correct	frucht	7000	617746
16	kleid_correct	624795	1430	kleid	626229	1187	627416	2	correct	FPM	correct	kleidungsstueck	2500	628312
16	ente_word	630862	1220	eule	632095	727	632823	1	correct	WPM	incorrect	vogel	3750	638161
17	seehund_word	639711	1380	seehund	641094	1009	642104	2	correct	WPM	correct	saeugetier	2500	643227
17	weintraube_word	645794	1460	kokosnuss	647261	498	647759	1	correct	WPM	incorrect	frucht	4750	649310
17	walze_word	654110	1300	sichel	655427	779	656207	1	correct	WPM	incorrect	werkzeug	7000	657627
17	zug_correct	664693	870	zug	665576	850	666427	2	correct	FPM	correct	fortbewegungsmittel	3750	671992
18	hobel_incorrect	673559	1170	hobel	674742	674	675417	1	correct	FPM	incorrect	werkzeug	7000	677075
18	meise_word	684142	1210	moewe	685358	743	686102	1	correct	WPM	incorrect	vogel	4750	687658
18	kutsche_incorrect	692458	1320	kutsche	693791	832	694623	1	correct	FPM	incorrect	fortbewegungsmittel	2500	695974
18	biber_word	698541	1130	kamel	699674	505	700180	1	correct	WPM	incorrect	saeugetier	16250	718340
19	eichhoernchen_correct	719890	990	eichhoernchen	720889	965	721855	2	correct	FPM	correct	saeugetier	7000	723406
19	kiwi_word	730456	1190	kiwi	731655	965	732621	2	correct	WPM	correct	frucht	4750	733972
19	flugzeug_word	738772	1410	flugzeug	740188	618	740807	2	correct	WPM	correct	fortbewegungsmittel	2500	742288
19	meise_incorrect	744821	1090	meise	745921	703	746625	1	correct	FPM	incorrect	vogel	16250	764620
20	tiger_word	766187	1210	bueffel	767403	598	768002	1	correct	WPM	incorrect	saeugetier	2500	769703
20	moehre_correct	772253	1130	moehre	773386	1012	774399	2	correct	FPM	correct	gemuese	7000	775770
20	wiege_word	782836	1190	wiege	784036	1084	785120	2	correct	WPM	correct	moebelstueck	4750	786352
20	tiger_incorrect	791169	1410	tiger	792585	1426	794011	2	incorrect	FPM	incorrect	saeugetier	3750	798468
21	750_500	800018	1200	pfeil_hoch	801235	1083	802971	1	correct	tone	incorrect	tone	4750	803534
21	550_300	808334	1200	pfeil_hoch	809551	678	810230	1	correct	tone	incorrect	tone	2500	811851
21	300_550	814401	1200	pfeil_hoch	815617	538	816156	2	correct	tone	correct	tone	7000	817917
21	450_700	824950	1200	pfeil_runter	826166	558	826725	1	correct	tone	incorrect	tone	3750	832249
22	zwiebel_word	833816	1250	zwiebel	835083	731	835814	2	correct	WPM	correct	gemuese	2500	837332
22	handschuh_word	839899	1180	mantel	841082	632	841715	1	correct	WPM	incorrect	kleidungsstueck	7000	843415
22	schal_correct	850482	1080	schal	851565	763	852329	2	correct	FPM	correct	kleidungsstueck	4750	853998
22	bohrmaschine_correct	858798	1180	bohrmaschine	859981	691	860672	2	correct	FPM	correct	werkzeug	0	859981
