MDN_APH

Participant:	1
Date: 02/12/2020 08:14:42
Session: 1
Run: 2
Buttons: 1/2

block_number	stimulus_audio	time_audio	length_audio	stimulus_picture	time_picture	response_time	relative_response_time	button_response	accuracy	condition	correctness	category	ISI	time_ISI
1	sellerie_word	21541	1170	sellerie	22708	1219	23927	2	correct	WPM	correct	gemuese	2500	25059
1	hubschrauber_correct	27610	1050	hubschrauber	28660	1256	29916	2	correct	FPM	correct	fortbewegungsmittel	7000	31128
1	truhe_incorrect	38180	1200	truhe	39380	1216	40597	1	correct	FPM	incorrect	moebelstueck	4750	41698
1	weintraube_correct	46500	980	weintraube	47483	1222	48705	2	correct	FPM	correct	frucht	16250	66271
2	reiher_word	67824	1240	wellensittich	69058	852	69910	1	correct	WPM	incorrect	vogel	7000	71324
2	ziege_correct	78378	1220	ziege	79595	1616	81211	2	correct	FPM	correct	saeugetier	4750	81896
2	rollschuh_word	86714	1240	fahrrad	87948	1409	89358	1	correct	WPM	incorrect	fortbewegungsmittel	2500	90232
2	handschuh_correct	92799	1130	handschuh	93913	2108	96021	2	correct	FPM	correct	kleidungsstueck	3750	100102
3	reiher_incorrect	101653	1020	reiher	102667	2029	104696	2	incorrect	FPM	incorrect	vogel	7000	105170
3	sessel_word	112223	1040	sessel	113273	1548	114822	2	correct	WPM	correct	moebelstueck	4750	115723
3	bueffel_word	120526	1210	tiger	121726	941	122667	1	correct	WPM	incorrect	saeugetier	2500	124027
3	mantel_word	126578	1040	mantel	127628	896	128525	2	correct	WPM	correct	kleidungsstueck	3750	133864
4	575_825	135398	1200	pfeil_hoch	136598	1402	138001	2	correct	tone	correct	tone	7000	138916
4	525_775	145952	1200	pfeil_runter	147152	2028	149180	2	incorrect	tone	incorrect	tone	2500	149452
4	375_625	151987	1200	pfeil_hoch	153187	1732	154920	2	correct	tone	correct	tone	4750	155488
4	675_425	160274	1200	pfeil_runter	161474	2229	163704	2	correct	tone	correct	tone	3750	167576
5	drehstuhl_word	169110	1430	drehstuhl	170544	1433	171977	2	correct	WPM	correct	moebelstueck	7000	172611
5	banane_correct	179664	1510	banane	181164	1162	182327	2	correct	FPM	correct	frucht	4750	183181
5	schlafanzug_word	187967	1290	pullover	189267	960	190228	1	correct	WPM	incorrect	kleidungsstueck	2500	191468
5	truhe_word	194035	1130	wiege	195169	1129	196298	1	correct	WPM	incorrect	moebelstueck	16250	213809
6	kleid_incorrect	215360	1430	kleid	216793	1302	218096	1	correct	FPM	incorrect	kleidungsstueck	4750	218877
6	kohlrabi_word	223663	1100	brokkoli	224763	1166	225930	1	correct	WPM	incorrect	gemuese	2500	227164
6	eule_incorrect	229731	940	eule	230665	1959	232624	1	correct	FPM	incorrect	vogel	7000	233233
6	feile_correct	240285	1150	feile	241417	1107	242525	1	incorrect	FPM	correct	werkzeug	3750	247588
7	bueffel_incorrect	249139	1110	bueffel	250255	1457	251713	1	correct	FPM	incorrect	saeugetier	4750	252639
7	regal_incorrect	257442	1360	regal	258789	989	259778	1	correct	FPM	incorrect	moebelstueck	2500	260959
7	spargel_word	263510	860	spargel	264360	1041	265402	2	correct	WPM	correct	gemuese	7000	267028
7	meissel_incorrect	274064	1070	meissel	275129	1443	276573	1	correct	FPM	incorrect	werkzeug	16250	293836
8	325_575	295372	1200	pfeil_runter	296572	1359	297931	1	correct	tone	incorrect	tone	7000	298889
8	400_650	305925	1200	pfeil_runter	307125	1053	308179	1	correct	tone	incorrect	tone	4750	309425
8	775_525	314212	1200	pfeil_runter	315412	2060	317472	1	incorrect	tone	correct	tone	2500	317729
8	750_500	320263	1200	pfeil_runter	321464	1122	322586	2	correct	tone	correct	tone	3750	327549
9	avocado_word	329117	1110	zwiebel	330215	1198	331414	1	correct	WPM	incorrect	gemuese	7000	332634
9	schiff_incorrect	339687	1290	schiff	340987	1213	342201	1	correct	FPM	incorrect	fortbewegungsmittel	2500	343188
9	rollschuh_incorrect	345739	990	rollschuh	346739	1192	347932	1	correct	FPM	incorrect	fortbewegungsmittel	4750	349239
9	kokosnuss_word	354042	1190	kokosnuss	355242	1152	356395	2	correct	WPM	correct	frucht	3750	361345
10	meise_correct	362896	1090	meise	363979	2051	366030	2	correct	FPM	correct	vogel	4750	366396
10	weisskohl_correct	371215	970	weisskohl	372182	1511	373693	2	correct	FPM	correct	gemuese	7000	374716
10	maurerkelle_word	381752	1220	maurerkelle	382969	963	383932	2	correct	WPM	correct	werkzeug	2500	385252
10	axt_incorrect	387804	1290	axt	389104	1094	390199	1	correct	FPM	incorrect	werkzeug	3750	395090
11	300_550	396624	1200	pfeil_runter	397824	2008	399833	1	correct	tone	incorrect	tone	7000	400125
11	475_725	407161	1200	pfeil_hoch	408361	1014	409376	2	correct	tone	correct	tone	2500	410661
11	700_450	413196	1200	pfeil_hoch	414397	1733	416130	1	correct	tone	incorrect	tone	4750	416714
11	550_300	421500	1200	pfeil_runter	422700	1230	423930	2	correct	tone	correct	tone	16250	441270
12	birne_word	442807	1450	blaubeere	444257	1052	445310	1	correct	WPM	incorrect	frucht	2500	446325
12	meissel_word	448859	1190	hobel	450059	2268	452328	1	correct	WPM	incorrect	werkzeug	4750	452377
12	regal_word	457162	1110	hocker	458279	994	459274	1	correct	WPM	incorrect	moebelstueck	7000	460680
12	schlafanzug_incorrect	467733	1210	schlafanzug	468949	1180	470130	1	correct	FPM	incorrect	kleidungsstueck	16250	487521
13	biber_correct	489074	960	biber	490040	2585	492626	2	correct	FPM	correct	saeugetier	2500	492574
13	elster_word	495109	1110	elster	496226	1805	498032	2	correct	WPM	correct	vogel	4750	498610
13	birne_incorrect	503412	1170	birne	504579	1298	505877	1	correct	FPM	incorrect	frucht	7000	506913
13	zitrone_word	513949	1320	zitrone	515266	1062	516329	2	correct	WPM	correct	frucht	3750	521251
14	kamel_word	522819	1430	kamel	524234	1346	525580	2	correct	WPM	correct	saeugetier	4750	526336
14	walze_correct	531139	1230	walze	532372	1625	533998	2	correct	FPM	correct	werkzeug	7000	534656
14	kohlrabi_incorrect	541709	1670	kohlrabi	543373	1052	544425	1	correct	FPM	incorrect	gemuese	2500	545210
14	schaukelstuhl_correct	547761	1220	schaukelstuhl	548975	1155	550131	1	incorrect	FPM	correct	moebelstueck	3750	555063
15	425_675	556598	1200	pfeil_runter	557798	1218	559016	1	correct	tone	incorrect	tone	4750	560098
15	650_400	564884	1200	pfeil_runter	566084	938	567022	2	correct	tone	correct	tone	2500	568401
15	550_800	570936	1200	pfeil_hoch	572136	984	573121	2	correct	tone	correct	tone	7000	574437
15	350_600	581473	1200	pfeil_hoch	582673	1327	584000	2	correct	tone	correct	tone	16250	601244
16	orange_word	602797	1510	aprikose	604314	1353	605668	1	correct	WPM	incorrect	frucht	2500	606298
16	gans_correct	608849	1370	gans	610214	2676	612891	1	incorrect	FPM	correct	vogel	7000	612350
16	orange_incorrect	619403	1300	orange	620703	1329	622032	1	correct	FPM	incorrect	frucht	4750	622904
16	moewe_word	627706	1200	moewe	628906	1423	630329	2	correct	WPM	correct	vogel	3750	635008
17	socke_word	636543	1280	socke	637826	767	638593	2	correct	WPM	correct	kleidungsstueck	7000	640043
17	schrank_correct	647113	990	schrank	648096	1322	649418	2	correct	FPM	correct	moebelstueck	2500	650631
17	avocado_incorrect	653181	1290	avocado	654482	1134	655616	1	correct	FPM	incorrect	gemuese	4750	656699
17	fuchs_incorrect	661502	1060	fuchs	662568	1147	663715	1	correct	FPM	incorrect	saeugetier	16250	681289
18	kleid_word	682842	1020	hut	683876	1121	684997	1	correct	WPM	incorrect	kleidungsstueck	2500	686360
18	mais_correct	688911	1110	mais	690011	1473	691485	2	correct	FPM	correct	gemuese	7000	692412
18	kutsche_correct	699465	1320	kutsche	700779	1107	701886	2	correct	FPM	correct	fortbewegungsmittel	4750	702966
18	schiff_word	707768	1320	traktor	709085	849	709934	1	correct	WPM	incorrect	fortbewegungsmittel	3750	715070
19	450_700	716604	1200	pfeil_hoch	717804	822	718627	2	correct	tone	correct	tone	4750	720122
19	600_350	724907	1200	pfeil_hoch	726107	1076	727183	1	correct	tone	incorrect	tone	7000	728408
19	625_375	735444	1200	pfeil_hoch	736644	1071	737716	1	correct	tone	incorrect	tone	2500	738962
19	825_575	741496	1200	pfeil_hoch	742696	1617	744314	1	correct	tone	incorrect	tone	16250	761267
20	kanu_word	762804	1300	kanu	764104	1355	765460	2	correct	WPM	correct	fortbewegungsmittel	2500	766322
20	jeans_correct	768873	1320	jeans	770190	1328	771518	2	correct	FPM	correct	kleidungsstueck	4750	772373
20	fledermaus_word	777159	1310	fledermaus	778476	1322	779798	2	correct	WPM	correct	saeugetier	7000	780677
20	fuchs_word	787730	1190	wal	788913	1007	789920	1	correct	WPM	incorrect	saeugetier	3750	795032
21	sichel_word	796583	1530	sichel	798116	1105	799221	2	correct	WPM	correct	werkzeug	2500	800084
21	eule_word	802618	1220	ente	803851	973	804825	1	correct	WPM	incorrect	vogel	7000	806136
21	faehre_word	813189	960	faehre	814155	1107	815263	2	correct	WPM	correct	fortbewegungsmittel	4750	816689
21	axt_word	821492	1210	harke	822689	896	823585	1	correct	WPM	incorrect	werkzeug	3750	828777
22	500_750	830311	1200	pfeil_runter	831511	1110	832622	2	incorrect	tone	incorrect	tone	4750	833812
22	800_550	838598	1200	pfeil_hoch	839798	2417	842216	2	incorrect	tone	incorrect	tone	2500	842098
22	575_325	844633	1200	pfeil_runter	845833	1190	847023	2	correct	tone	correct	tone	7000	848151
22	725_475	855187	1200	pfeil_hoch	856387	1448	857836	2	incorrect	tone	incorrect	tone	0	856387
